06-24-14 14:42:28	210.61.142.43	INFO	admin	Log In	
06-24-14 14:42:28	210.61.142.43	INFO	admin	Disabling Public links, PUBLIC_DOWNLOAD_FOLDER is not writeable!	folder=false;is_dir=false;is_writeable=false
06-24-14 14:42:28	210.61.142.43	INFO	admin	Disabling Public links, PUBLIC_DOWNLOAD_FOLDER is not writeable!	folder=false;is_dir=false;is_writeable=false
06-24-14 14:42:29	210.61.142.43	INFO	admin	Disabling Public links, PUBLIC_DOWNLOAD_FOLDER is not writeable!	folder=false;is_dir=false;is_writeable=false
06-24-14 14:42:29	210.61.142.43	INFO	admin	Disabling Public links, PUBLIC_DOWNLOAD_FOLDER is not writeable!	folder=false;is_dir=false;is_writeable=false
06-24-14 14:42:29	210.61.142.43	INFO	admin	Disabling Public links, PUBLIC_DOWNLOAD_FOLDER is not writeable!	folder=false;is_dir=false;is_writeable=false
06-24-14 14:42:29	210.61.142.43	INFO	admin	Disabling Public links, PUBLIC_DOWNLOAD_FOLDER is not writeable!	folder=false;is_dir=false;is_writeable=false
06-24-14 14:42:30	210.61.142.43	INFO	admin	Disabling Public links, PUBLIC_DOWNLOAD_FOLDER is not writeable!	folder=false;is_dir=false;is_writeable=false
06-24-14 14:42:30	210.61.142.43	INFO	admin	Disabling Public links, PUBLIC_DOWNLOAD_FOLDER is not writeable!	folder=false;is_dir=false;is_writeable=false
06-24-14 14:42:30	210.61.142.43	INFO	admin	Disabling Public links, PUBLIC_DOWNLOAD_FOLDER is not writeable!	folder=false;is_dir=false;is_writeable=false
06-24-14 14:42:30	210.61.142.43	INFO	admin	Disabling Public links, PUBLIC_DOWNLOAD_FOLDER is not writeable!	folder=false;is_dir=false;is_writeable=false
06-24-14 14:42:36	210.61.142.43	INFO	admin	Disabling Public links, PUBLIC_DOWNLOAD_FOLDER is not writeable!	folder=false;is_dir=false;is_writeable=false
06-24-14 14:42:36	210.61.142.43	INFO	admin	Disabling Public links, PUBLIC_DOWNLOAD_FOLDER is not writeable!	folder=false;is_dir=false;is_writeable=false
06-24-14 14:42:36	210.61.142.43	INFO	admin	Switch Repository	rep. id=c1a19f4225b1380aa0d984224ca59ecb
06-24-14 14:42:36	210.61.142.43	INFO	admin	Disabling Public links, PUBLIC_DOWNLOAD_FOLDER is not writeable!	folder=false;is_dir=false;is_writeable=false
06-24-14 14:42:36	210.61.142.43	INFO	admin	Disabling Public links, PUBLIC_DOWNLOAD_FOLDER is not writeable!	folder=false;is_dir=false;is_writeable=false
06-24-14 14:42:37	210.61.142.43	INFO	admin	Disabling Public links, PUBLIC_DOWNLOAD_FOLDER is not writeable!	folder=false;is_dir=false;is_writeable=false
06-24-14 14:42:38	210.61.142.43	INFO	admin	Disabling Public links, PUBLIC_DOWNLOAD_FOLDER is not writeable!	folder=false;is_dir=false;is_writeable=false
06-24-14 14:42:38	210.61.142.43	INFO	admin	Disabling Public links, PUBLIC_DOWNLOAD_FOLDER is not writeable!	folder=false;is_dir=false;is_writeable=false
06-24-14 14:42:38	210.61.142.43	INFO	admin	Disabling Public links, PUBLIC_DOWNLOAD_FOLDER is not writeable!	folder=false;is_dir=false;is_writeable=false
06-24-14 14:42:38	210.61.142.43	INFO	admin	Disabling Public links, PUBLIC_DOWNLOAD_FOLDER is not writeable!	folder=false;is_dir=false;is_writeable=false
06-24-14 14:42:38	210.61.142.43	INFO	admin	Disabling Public links, PUBLIC_DOWNLOAD_FOLDER is not writeable!	folder=false;is_dir=false;is_writeable=false
06-24-14 14:42:38	210.61.142.43	INFO	admin	Disabling Public links, PUBLIC_DOWNLOAD_FOLDER is not writeable!	folder=false;is_dir=false;is_writeable=false
06-24-14 14:42:43	210.61.142.43	INFO	admin	Disabling Public links, PUBLIC_DOWNLOAD_FOLDER is not writeable!	folder=false;is_dir=false;is_writeable=false
06-24-14 14:42:44	210.61.142.43	INFO	admin	Disabling Public links, PUBLIC_DOWNLOAD_FOLDER is not writeable!	folder=false;is_dir=false;is_writeable=false
06-24-14 14:42:44	210.61.142.43	INFO	admin	Disabling Public links, PUBLIC_DOWNLOAD_FOLDER is not writeable!	folder=false;is_dir=false;is_writeable=false
06-24-14 14:42:45	210.61.142.43	INFO	admin	Disabling Public links, PUBLIC_DOWNLOAD_FOLDER is not writeable!	folder=false;is_dir=false;is_writeable=false
06-24-14 14:42:46	210.61.142.43	INFO	admin	Disabling Public links, PUBLIC_DOWNLOAD_FOLDER is not writeable!	folder=false;is_dir=false;is_writeable=false
06-24-14 14:42:50	210.61.142.43	INFO	admin	Disabling Public links, PUBLIC_DOWNLOAD_FOLDER is not writeable!	folder=false;is_dir=false;is_writeable=false
06-24-14 14:42:51	210.61.142.43	INFO	admin	Disabling Public links, PUBLIC_DOWNLOAD_FOLDER is not writeable!	folder=false;is_dir=false;is_writeable=false
06-24-14 14:42:58	210.61.142.43	INFO	admin	Disabling Public links, PUBLIC_DOWNLOAD_FOLDER is not writeable!	folder=false;is_dir=false;is_writeable=false
06-24-14 14:45:21	210.61.142.43	INFO	admin	Disabling Public links, PUBLIC_DOWNLOAD_FOLDER is not writeable!	folder=false;is_dir=false;is_writeable=false
06-24-14 14:45:39	210.61.142.43	INFO	admin	Disabling Public links, PUBLIC_DOWNLOAD_FOLDER is not writeable!	folder=false;is_dir=false;is_writeable=false
06-24-14 14:45:39	210.61.142.43	INFO	admin	Online Edition	file=/trunk/application/models/mod_member.php
