06-23-14 11:38:48	210.61.142.43	INFO	admin	Log In	
06-23-14 11:38:48	210.61.142.43	INFO	admin	Disabling Public links, PUBLIC_DOWNLOAD_FOLDER is not writeable!	folder=false;is_dir=false;is_writeable=false
06-23-14 11:38:48	210.61.142.43	INFO	admin	Disabling Public links, PUBLIC_DOWNLOAD_FOLDER is not writeable!	folder=false;is_dir=false;is_writeable=false
06-23-14 11:38:49	210.61.142.43	INFO	admin	Disabling Public links, PUBLIC_DOWNLOAD_FOLDER is not writeable!	folder=false;is_dir=false;is_writeable=false
06-23-14 11:38:49	210.61.142.43	INFO	admin	Disabling Public links, PUBLIC_DOWNLOAD_FOLDER is not writeable!	folder=false;is_dir=false;is_writeable=false
06-23-14 11:38:49	210.61.142.43	INFO	admin	Disabling Public links, PUBLIC_DOWNLOAD_FOLDER is not writeable!	folder=false;is_dir=false;is_writeable=false
06-23-14 11:38:49	210.61.142.43	INFO	admin	Disabling Public links, PUBLIC_DOWNLOAD_FOLDER is not writeable!	folder=false;is_dir=false;is_writeable=false
06-23-14 11:38:49	210.61.142.43	INFO	admin	Disabling Public links, PUBLIC_DOWNLOAD_FOLDER is not writeable!	folder=false;is_dir=false;is_writeable=false
06-23-14 11:38:57	210.61.142.43	INFO	admin	Disabling Public links, PUBLIC_DOWNLOAD_FOLDER is not writeable!	folder=false;is_dir=false;is_writeable=false
06-23-14 11:38:57	210.61.142.43	INFO	admin	Disabling Public links, PUBLIC_DOWNLOAD_FOLDER is not writeable!	folder=false;is_dir=false;is_writeable=false
06-23-14 11:39:00	210.61.142.43	INFO	admin	Disabling Public links, PUBLIC_DOWNLOAD_FOLDER is not writeable!	folder=false;is_dir=false;is_writeable=false
06-23-14 11:39:00	210.61.142.43	INFO	admin	Disabling Public links, PUBLIC_DOWNLOAD_FOLDER is not writeable!	folder=false;is_dir=false;is_writeable=false
06-23-14 11:39:03	210.61.142.43	INFO	admin	Disabling Public links, PUBLIC_DOWNLOAD_FOLDER is not writeable!	folder=false;is_dir=false;is_writeable=false
06-23-14 11:39:03	210.61.142.43	INFO	admin	Disabling Public links, PUBLIC_DOWNLOAD_FOLDER is not writeable!	folder=false;is_dir=false;is_writeable=false
06-23-14 11:39:03	210.61.142.43	INFO	admin	Switch Repository	rep. id=c1a19f4225b1380aa0d984224ca59ecb
06-23-14 11:39:03	210.61.142.43	INFO	admin	Disabling Public links, PUBLIC_DOWNLOAD_FOLDER is not writeable!	folder=false;is_dir=false;is_writeable=false
06-23-14 11:39:03	210.61.142.43	INFO	admin	Disabling Public links, PUBLIC_DOWNLOAD_FOLDER is not writeable!	folder=false;is_dir=false;is_writeable=false
06-23-14 11:39:04	210.61.142.43	INFO	admin	Disabling Public links, PUBLIC_DOWNLOAD_FOLDER is not writeable!	folder=false;is_dir=false;is_writeable=false
06-23-14 11:39:04	210.61.142.43	INFO	admin	Disabling Public links, PUBLIC_DOWNLOAD_FOLDER is not writeable!	folder=false;is_dir=false;is_writeable=false
06-23-14 11:39:05	210.61.142.43	INFO	admin	Disabling Public links, PUBLIC_DOWNLOAD_FOLDER is not writeable!	folder=false;is_dir=false;is_writeable=false
06-23-14 11:39:08	210.61.142.43	INFO	admin	Disabling Public links, PUBLIC_DOWNLOAD_FOLDER is not writeable!	folder=false;is_dir=false;is_writeable=false
06-23-14 11:39:08	210.61.142.43	INFO	admin	Disabling Public links, PUBLIC_DOWNLOAD_FOLDER is not writeable!	folder=false;is_dir=false;is_writeable=false
06-23-14 11:39:13	210.61.142.43	INFO	admin	Disabling Public links, PUBLIC_DOWNLOAD_FOLDER is not writeable!	folder=false;is_dir=false;is_writeable=false
06-23-14 11:39:13	210.61.142.43	INFO	admin	Download	files=/trunk/ckeditor/config.js
06-23-14 11:41:37	210.61.142.43	INFO	admin	Disabling Public links, PUBLIC_DOWNLOAD_FOLDER is not writeable!	folder=false;is_dir=false;is_writeable=false
06-23-14 11:41:37	210.61.142.43	INFO	admin	Disabling Public links, PUBLIC_DOWNLOAD_FOLDER is not writeable!	folder=false;is_dir=false;is_writeable=false
06-23-14 11:42:00	210.61.142.43	INFO	admin	Disabling Public links, PUBLIC_DOWNLOAD_FOLDER is not writeable!	folder=false;is_dir=false;is_writeable=false
06-23-14 11:42:00	210.61.142.43	INFO	admin	Disabling Public links, PUBLIC_DOWNLOAD_FOLDER is not writeable!	folder=false;is_dir=false;is_writeable=false
06-23-14 11:42:09	210.61.142.43	INFO	admin	Disabling Public links, PUBLIC_DOWNLOAD_FOLDER is not writeable!	folder=false;is_dir=false;is_writeable=false
06-23-14 11:42:09	210.61.142.43	INFO	admin	Disabling Public links, PUBLIC_DOWNLOAD_FOLDER is not writeable!	folder=false;is_dir=false;is_writeable=false
06-23-14 11:42:20	210.61.142.43	INFO	admin	Disabling Public links, PUBLIC_DOWNLOAD_FOLDER is not writeable!	folder=false;is_dir=false;is_writeable=false
06-23-14 11:42:20	210.61.142.43	INFO	admin	Disabling Public links, PUBLIC_DOWNLOAD_FOLDER is not writeable!	folder=false;is_dir=false;is_writeable=false
06-23-14 11:42:20	210.61.142.43	INFO	admin	Disabling Public links, PUBLIC_DOWNLOAD_FOLDER is not writeable!	folder=false;is_dir=false;is_writeable=false
06-23-14 11:42:23	210.61.142.43	INFO	admin	Disabling Public links, PUBLIC_DOWNLOAD_FOLDER is not writeable!	folder=false;is_dir=false;is_writeable=false
06-23-14 11:42:23	210.61.142.43	INFO	admin	Disabling Public links, PUBLIC_DOWNLOAD_FOLDER is not writeable!	folder=false;is_dir=false;is_writeable=false
06-23-14 11:42:23	210.61.142.43	INFO	admin	Disabling Public links, PUBLIC_DOWNLOAD_FOLDER is not writeable!	folder=false;is_dir=false;is_writeable=false
06-23-14 11:42:23	210.61.142.43	INFO	admin	Disabling Public links, PUBLIC_DOWNLOAD_FOLDER is not writeable!	folder=false;is_dir=false;is_writeable=false
06-23-14 11:42:49	210.61.142.43	INFO	admin	Disabling Public links, PUBLIC_DOWNLOAD_FOLDER is not writeable!	folder=false;is_dir=false;is_writeable=false
06-23-14 11:42:56	210.61.142.43	INFO	admin	Disabling Public links, PUBLIC_DOWNLOAD_FOLDER is not writeable!	folder=false;is_dir=false;is_writeable=false
06-23-14 11:43:07	210.61.142.43	INFO	admin	Disabling Public links, PUBLIC_DOWNLOAD_FOLDER is not writeable!	folder=false;is_dir=false;is_writeable=false
06-23-14 11:43:07	210.61.142.43	INFO	admin	Online Edition	file=/trunk/ckfinder/config.php
06-23-14 11:48:43	210.61.142.43	INFO	admin	Disabling Public links, PUBLIC_DOWNLOAD_FOLDER is not writeable!	folder=false;is_dir=false;is_writeable=false
06-23-14 11:48:48	210.61.142.43	INFO	admin	Disabling Public links, PUBLIC_DOWNLOAD_FOLDER is not writeable!	folder=false;is_dir=false;is_writeable=false
06-23-14 11:48:50	210.61.142.43	INFO	admin	Disabling Public links, PUBLIC_DOWNLOAD_FOLDER is not writeable!	folder=false;is_dir=false;is_writeable=false
06-23-14 13:08:08	210.61.142.43	INFO	admin	Disabling Public links, PUBLIC_DOWNLOAD_FOLDER is not writeable!	folder=false;is_dir=false;is_writeable=false
06-23-14 13:08:08	210.61.142.43	INFO	admin	Disabling Public links, PUBLIC_DOWNLOAD_FOLDER is not writeable!	folder=false;is_dir=false;is_writeable=false
06-23-14 13:08:08	210.61.142.43	INFO	admin	Disabling Public links, PUBLIC_DOWNLOAD_FOLDER is not writeable!	folder=false;is_dir=false;is_writeable=false
06-23-14 13:08:08	210.61.142.43	INFO	admin	Disabling Public links, PUBLIC_DOWNLOAD_FOLDER is not writeable!	folder=false;is_dir=false;is_writeable=false
06-23-14 13:09:30	210.61.142.43	INFO	admin	Disabling Public links, PUBLIC_DOWNLOAD_FOLDER is not writeable!	folder=false;is_dir=false;is_writeable=false
06-23-14 13:09:31	210.61.142.43	INFO	admin	Disabling Public links, PUBLIC_DOWNLOAD_FOLDER is not writeable!	folder=false;is_dir=false;is_writeable=false
06-23-14 13:09:33	210.61.142.43	INFO	admin	Disabling Public links, PUBLIC_DOWNLOAD_FOLDER is not writeable!	folder=false;is_dir=false;is_writeable=false
06-23-14 13:09:35	210.61.142.43	INFO	admin	Disabling Public links, PUBLIC_DOWNLOAD_FOLDER is not writeable!	folder=false;is_dir=false;is_writeable=false
06-23-14 13:09:35	210.61.142.43	INFO	admin	Disabling Public links, PUBLIC_DOWNLOAD_FOLDER is not writeable!	folder=false;is_dir=false;is_writeable=false
06-23-14 13:09:37	210.61.142.43	INFO	admin	Disabling Public links, PUBLIC_DOWNLOAD_FOLDER is not writeable!	folder=false;is_dir=false;is_writeable=false
06-23-14 13:09:38	210.61.142.43	INFO	admin	Disabling Public links, PUBLIC_DOWNLOAD_FOLDER is not writeable!	folder=false;is_dir=false;is_writeable=false
06-23-14 13:09:42	210.61.142.43	INFO	admin	Disabling Public links, PUBLIC_DOWNLOAD_FOLDER is not writeable!	folder=false;is_dir=false;is_writeable=false
06-23-14 13:09:42	210.61.142.43	INFO	admin	Disabling Public links, PUBLIC_DOWNLOAD_FOLDER is not writeable!	folder=false;is_dir=false;is_writeable=false
06-23-14 13:09:43	210.61.142.43	INFO	admin	Disabling Public links, PUBLIC_DOWNLOAD_FOLDER is not writeable!	folder=false;is_dir=false;is_writeable=false
06-23-14 13:10:02	210.61.142.43	INFO	admin	Disabling Public links, PUBLIC_DOWNLOAD_FOLDER is not writeable!	folder=false;is_dir=false;is_writeable=false
06-23-14 13:10:02	210.61.142.43	INFO	admin	error	message=Forbidden in /var/www/html/file/plugins/access.fs/class.fsAccessDriver.php (l.688)
06-23-14 13:10:13	210.61.142.43	INFO	admin	Disabling Public links, PUBLIC_DOWNLOAD_FOLDER is not writeable!	folder=false;is_dir=false;is_writeable=false
06-23-14 13:10:13	210.61.142.43	INFO	admin	error	message=Forbidden in /var/www/html/file/plugins/access.fs/class.fsAccessDriver.php (l.688)
06-23-14 13:10:27	210.61.142.43	INFO	admin	Disabling Public links, PUBLIC_DOWNLOAD_FOLDER is not writeable!	folder=false;is_dir=false;is_writeable=false
06-23-14 13:10:44	210.61.142.43	INFO	admin	Disabling Public links, PUBLIC_DOWNLOAD_FOLDER is not writeable!	folder=false;is_dir=false;is_writeable=false
06-23-14 13:10:45	210.61.142.43	INFO	admin	Disabling Public links, PUBLIC_DOWNLOAD_FOLDER is not writeable!	folder=false;is_dir=false;is_writeable=false
06-23-14 13:10:47	210.61.142.43	INFO	admin	Disabling Public links, PUBLIC_DOWNLOAD_FOLDER is not writeable!	folder=false;is_dir=false;is_writeable=false
06-23-14 13:10:49	210.61.142.43	INFO	admin	Disabling Public links, PUBLIC_DOWNLOAD_FOLDER is not writeable!	folder=false;is_dir=false;is_writeable=false
06-23-14 13:13:28	123.240.36.95	INFO	admin	Log In	
06-23-14 13:13:28	123.240.36.95	INFO	admin	Disabling Public links, PUBLIC_DOWNLOAD_FOLDER is not writeable!	folder=false;is_dir=false;is_writeable=false
06-23-14 13:13:29	123.240.36.95	INFO	admin	Disabling Public links, PUBLIC_DOWNLOAD_FOLDER is not writeable!	folder=false;is_dir=false;is_writeable=false
06-23-14 13:13:29	123.240.36.95	INFO	admin	Disabling Public links, PUBLIC_DOWNLOAD_FOLDER is not writeable!	folder=false;is_dir=false;is_writeable=false
06-23-14 13:13:29	123.240.36.95	INFO	admin	Disabling Public links, PUBLIC_DOWNLOAD_FOLDER is not writeable!	folder=false;is_dir=false;is_writeable=false
06-23-14 13:13:29	123.240.36.95	INFO	admin	Disabling Public links, PUBLIC_DOWNLOAD_FOLDER is not writeable!	folder=false;is_dir=false;is_writeable=false
06-23-14 13:13:30	123.240.36.95	INFO	admin	Disabling Public links, PUBLIC_DOWNLOAD_FOLDER is not writeable!	folder=false;is_dir=false;is_writeable=false
06-23-14 13:13:31	123.240.36.95	INFO	admin	Disabling Public links, PUBLIC_DOWNLOAD_FOLDER is not writeable!	folder=false;is_dir=false;is_writeable=false
06-23-14 13:13:31	123.240.36.95	INFO	admin	Disabling Public links, PUBLIC_DOWNLOAD_FOLDER is not writeable!	folder=false;is_dir=false;is_writeable=false
06-23-14 13:13:31	123.240.36.95	INFO	admin	Disabling Public links, PUBLIC_DOWNLOAD_FOLDER is not writeable!	folder=false;is_dir=false;is_writeable=false
06-23-14 13:13:31	123.240.36.95	INFO	admin	Disabling Public links, PUBLIC_DOWNLOAD_FOLDER is not writeable!	folder=false;is_dir=false;is_writeable=false
06-23-14 13:13:34	123.240.36.95	INFO	admin	Disabling Public links, PUBLIC_DOWNLOAD_FOLDER is not writeable!	folder=false;is_dir=false;is_writeable=false
06-23-14 13:13:36	123.240.36.95	INFO	admin	Disabling Public links, PUBLIC_DOWNLOAD_FOLDER is not writeable!	folder=false;is_dir=false;is_writeable=false
06-23-14 13:13:43	123.240.36.95	INFO	admin	Disabling Public links, PUBLIC_DOWNLOAD_FOLDER is not writeable!	folder=false;is_dir=false;is_writeable=false
06-23-14 13:13:43	123.240.36.95	INFO	admin	Disabling Public links, PUBLIC_DOWNLOAD_FOLDER is not writeable!	folder=false;is_dir=false;is_writeable=false
06-23-14 13:13:48	123.240.36.95	INFO	admin	Disabling Public links, PUBLIC_DOWNLOAD_FOLDER is not writeable!	folder=false;is_dir=false;is_writeable=false
06-23-14 13:13:54	123.240.36.95	INFO	admin	Disabling Public links, PUBLIC_DOWNLOAD_FOLDER is not writeable!	folder=false;is_dir=false;is_writeable=false
06-23-14 13:13:54	123.240.36.95	INFO	admin	Disabling Public links, PUBLIC_DOWNLOAD_FOLDER is not writeable!	folder=false;is_dir=false;is_writeable=false
06-23-14 13:13:54	123.240.36.95	INFO	admin	Switch Repository	rep. id=c1a19f4225b1380aa0d984224ca59ecb
06-23-14 13:13:54	123.240.36.95	INFO	admin	Disabling Public links, PUBLIC_DOWNLOAD_FOLDER is not writeable!	folder=false;is_dir=false;is_writeable=false
06-23-14 13:13:55	123.240.36.95	INFO	admin	Disabling Public links, PUBLIC_DOWNLOAD_FOLDER is not writeable!	folder=false;is_dir=false;is_writeable=false
06-23-14 13:13:56	123.240.36.95	INFO	admin	Disabling Public links, PUBLIC_DOWNLOAD_FOLDER is not writeable!	folder=false;is_dir=false;is_writeable=false
06-23-14 13:13:56	123.240.36.95	INFO	admin	Disabling Public links, PUBLIC_DOWNLOAD_FOLDER is not writeable!	folder=false;is_dir=false;is_writeable=false
06-23-14 13:13:57	123.240.36.95	INFO	admin	Disabling Public links, PUBLIC_DOWNLOAD_FOLDER is not writeable!	folder=false;is_dir=false;is_writeable=false
06-23-14 13:14:10	123.240.36.95	INFO	admin	Disabling Public links, PUBLIC_DOWNLOAD_FOLDER is not writeable!	folder=false;is_dir=false;is_writeable=false
06-23-14 13:14:16	123.240.36.95	INFO	admin	Disabling Public links, PUBLIC_DOWNLOAD_FOLDER is not writeable!	folder=false;is_dir=false;is_writeable=false
06-23-14 13:14:17	123.240.36.95	INFO	admin	Disabling Public links, PUBLIC_DOWNLOAD_FOLDER is not writeable!	folder=false;is_dir=false;is_writeable=false
06-23-14 13:14:49	123.240.36.95	INFO	admin	Disabling Public links, PUBLIC_DOWNLOAD_FOLDER is not writeable!	folder=false;is_dir=false;is_writeable=false
06-23-14 13:14:49	123.240.36.95	INFO	admin	Disabling Public links, PUBLIC_DOWNLOAD_FOLDER is not writeable!	folder=false;is_dir=false;is_writeable=false
06-23-14 13:14:52	123.240.36.95	INFO	admin	Disabling Public links, PUBLIC_DOWNLOAD_FOLDER is not writeable!	folder=false;is_dir=false;is_writeable=false
06-23-14 13:15:08	123.240.36.95	INFO	admin	Disabling Public links, PUBLIC_DOWNLOAD_FOLDER is not writeable!	folder=false;is_dir=false;is_writeable=false
06-23-14 13:15:10	123.240.36.95	INFO	admin	Disabling Public links, PUBLIC_DOWNLOAD_FOLDER is not writeable!	folder=false;is_dir=false;is_writeable=false
06-23-14 13:15:10	123.240.36.95	INFO	admin	Disabling Public links, PUBLIC_DOWNLOAD_FOLDER is not writeable!	folder=false;is_dir=false;is_writeable=false
06-23-14 13:15:12	123.240.36.95	INFO	admin	Disabling Public links, PUBLIC_DOWNLOAD_FOLDER is not writeable!	folder=false;is_dir=false;is_writeable=false
06-23-14 13:15:12	123.240.36.95	INFO	admin	Disabling Public links, PUBLIC_DOWNLOAD_FOLDER is not writeable!	folder=false;is_dir=false;is_writeable=false
06-23-14 13:15:14	123.240.36.95	INFO	admin	Disabling Public links, PUBLIC_DOWNLOAD_FOLDER is not writeable!	folder=false;is_dir=false;is_writeable=false
06-23-14 13:15:14	123.240.36.95	INFO	admin	Disabling Public links, PUBLIC_DOWNLOAD_FOLDER is not writeable!	folder=false;is_dir=false;is_writeable=false
06-23-14 13:15:15	123.240.36.95	INFO	admin	Disabling Public links, PUBLIC_DOWNLOAD_FOLDER is not writeable!	folder=false;is_dir=false;is_writeable=false
06-23-14 13:15:17	123.240.36.95	INFO	admin	Disabling Public links, PUBLIC_DOWNLOAD_FOLDER is not writeable!	folder=false;is_dir=false;is_writeable=false
06-23-14 13:15:22	123.240.36.95	INFO	admin	Disabling Public links, PUBLIC_DOWNLOAD_FOLDER is not writeable!	folder=false;is_dir=false;is_writeable=false
06-23-14 13:15:22	123.240.36.95	INFO	admin	Disabling Public links, PUBLIC_DOWNLOAD_FOLDER is not writeable!	folder=false;is_dir=false;is_writeable=false
06-23-14 13:15:51	123.240.36.95	INFO	admin	Disabling Public links, PUBLIC_DOWNLOAD_FOLDER is not writeable!	folder=false;is_dir=false;is_writeable=false
06-23-14 13:15:51	123.240.36.95	INFO	admin	Disabling Public links, PUBLIC_DOWNLOAD_FOLDER is not writeable!	folder=false;is_dir=false;is_writeable=false
06-23-14 13:15:52	123.240.36.95	INFO	admin	Disabling Public links, PUBLIC_DOWNLOAD_FOLDER is not writeable!	folder=false;is_dir=false;is_writeable=false
06-23-14 13:15:53	123.240.36.95	INFO	admin	Disabling Public links, PUBLIC_DOWNLOAD_FOLDER is not writeable!	folder=false;is_dir=false;is_writeable=false
06-23-14 13:15:56	123.240.36.95	INFO	admin	Disabling Public links, PUBLIC_DOWNLOAD_FOLDER is not writeable!	folder=false;is_dir=false;is_writeable=false
06-23-14 13:15:57	123.240.36.95	INFO	admin	Disabling Public links, PUBLIC_DOWNLOAD_FOLDER is not writeable!	folder=false;is_dir=false;is_writeable=false
06-23-14 13:16:01	123.240.36.95	INFO	admin	Disabling Public links, PUBLIC_DOWNLOAD_FOLDER is not writeable!	folder=false;is_dir=false;is_writeable=false
06-23-14 13:16:01	123.240.36.95	INFO	admin	Download	files=/trunk/ckfinder/config.php
06-23-14 13:16:29	123.240.36.95	INFO	admin	Disabling Public links, PUBLIC_DOWNLOAD_FOLDER is not writeable!	folder=false;is_dir=false;is_writeable=false
06-23-14 13:16:55	123.240.36.95	INFO	admin	Disabling Public links, PUBLIC_DOWNLOAD_FOLDER is not writeable!	folder=false;is_dir=false;is_writeable=false
06-23-14 13:16:55	123.240.36.95	INFO	admin	Online Edition	file=/trunk/ckfinder/config.php
06-23-14 13:17:10	123.240.36.95	INFO	admin	Disabling Public links, PUBLIC_DOWNLOAD_FOLDER is not writeable!	folder=false;is_dir=false;is_writeable=false
06-23-14 13:17:11	123.240.36.95	INFO	admin	Disabling Public links, PUBLIC_DOWNLOAD_FOLDER is not writeable!	folder=false;is_dir=false;is_writeable=false
06-23-14 13:17:11	123.240.36.95	INFO	admin	Disabling Public links, PUBLIC_DOWNLOAD_FOLDER is not writeable!	folder=false;is_dir=false;is_writeable=false
06-23-14 13:17:22	123.240.36.95	INFO	admin	Disabling Public links, PUBLIC_DOWNLOAD_FOLDER is not writeable!	folder=false;is_dir=false;is_writeable=false
06-23-14 13:17:22	123.240.36.95	INFO	admin	Disabling Public links, PUBLIC_DOWNLOAD_FOLDER is not writeable!	folder=false;is_dir=false;is_writeable=false
06-23-14 13:17:34	123.240.36.95	INFO	admin	Disabling Public links, PUBLIC_DOWNLOAD_FOLDER is not writeable!	folder=false;is_dir=false;is_writeable=false
06-23-14 13:17:42	123.240.36.95	INFO	admin	Disabling Public links, PUBLIC_DOWNLOAD_FOLDER is not writeable!	folder=false;is_dir=false;is_writeable=false
06-23-14 13:18:01	123.240.36.95	INFO	admin	Disabling Public links, PUBLIC_DOWNLOAD_FOLDER is not writeable!	folder=false;is_dir=false;is_writeable=false
06-23-14 13:18:01	123.240.36.95	INFO	admin	Online Edition	file=/trunk/ckfinder/config.php
06-23-14 13:19:52	123.240.36.95	INFO	admin	Disabling Public links, PUBLIC_DOWNLOAD_FOLDER is not writeable!	folder=false;is_dir=false;is_writeable=false
06-23-14 13:20:00	123.240.36.95	INFO	admin	Disabling Public links, PUBLIC_DOWNLOAD_FOLDER is not writeable!	folder=false;is_dir=false;is_writeable=false
06-23-14 13:20:02	123.240.36.95	INFO	admin	Disabling Public links, PUBLIC_DOWNLOAD_FOLDER is not writeable!	folder=false;is_dir=false;is_writeable=false
06-23-14 13:20:07	123.240.36.95	INFO	admin	Disabling Public links, PUBLIC_DOWNLOAD_FOLDER is not writeable!	folder=false;is_dir=false;is_writeable=false
06-23-14 13:20:08	123.240.36.95	INFO	admin	Disabling Public links, PUBLIC_DOWNLOAD_FOLDER is not writeable!	folder=false;is_dir=false;is_writeable=false
06-23-14 13:20:12	123.240.36.95	INFO	admin	Disabling Public links, PUBLIC_DOWNLOAD_FOLDER is not writeable!	folder=false;is_dir=false;is_writeable=false
06-23-14 13:20:12	123.240.36.95	INFO	admin	Disabling Public links, PUBLIC_DOWNLOAD_FOLDER is not writeable!	folder=false;is_dir=false;is_writeable=false
06-23-14 13:20:12	123.240.36.95	INFO	admin	Disabling Public links, PUBLIC_DOWNLOAD_FOLDER is not writeable!	folder=false;is_dir=false;is_writeable=false
06-23-14 13:20:16	123.240.36.95	INFO	admin	Disabling Public links, PUBLIC_DOWNLOAD_FOLDER is not writeable!	folder=false;is_dir=false;is_writeable=false
06-23-14 13:20:25	123.240.36.95	INFO	admin	Disabling Public links, PUBLIC_DOWNLOAD_FOLDER is not writeable!	folder=false;is_dir=false;is_writeable=false
06-23-14 13:20:26	123.240.36.95	INFO	admin	Disabling Public links, PUBLIC_DOWNLOAD_FOLDER is not writeable!	folder=false;is_dir=false;is_writeable=false
06-23-14 13:20:29	123.240.36.95	INFO	admin	Disabling Public links, PUBLIC_DOWNLOAD_FOLDER is not writeable!	folder=false;is_dir=false;is_writeable=false
06-23-14 13:20:30	123.240.36.95	INFO	admin	Disabling Public links, PUBLIC_DOWNLOAD_FOLDER is not writeable!	folder=false;is_dir=false;is_writeable=false
06-23-14 13:20:32	123.240.36.95	INFO	admin	Disabling Public links, PUBLIC_DOWNLOAD_FOLDER is not writeable!	folder=false;is_dir=false;is_writeable=false
06-23-14 13:20:32	123.240.36.95	INFO	admin	Delete	files=/trunk/images/images/b_01(1).jpg
06-23-14 13:20:32	123.240.36.95	INFO	admin	Disabling Public links, PUBLIC_DOWNLOAD_FOLDER is not writeable!	folder=false;is_dir=false;is_writeable=false
06-23-14 13:20:32	123.240.36.95	INFO	admin	Disabling Public links, PUBLIC_DOWNLOAD_FOLDER is not writeable!	folder=false;is_dir=false;is_writeable=false
06-23-14 13:20:33	123.240.36.95	INFO	admin	Disabling Public links, PUBLIC_DOWNLOAD_FOLDER is not writeable!	folder=false;is_dir=false;is_writeable=false
06-23-14 13:20:33	123.240.36.95	INFO	admin	Disabling Public links, PUBLIC_DOWNLOAD_FOLDER is not writeable!	folder=false;is_dir=false;is_writeable=false
06-23-14 13:20:37	123.240.36.95	INFO	admin	Disabling Public links, PUBLIC_DOWNLOAD_FOLDER is not writeable!	folder=false;is_dir=false;is_writeable=false
06-23-14 13:20:37	123.240.36.95	INFO	admin	Delete	files=/trunk/images/images/b_01.jpg
06-23-14 13:20:37	123.240.36.95	INFO	admin	Disabling Public links, PUBLIC_DOWNLOAD_FOLDER is not writeable!	folder=false;is_dir=false;is_writeable=false
06-23-14 13:20:37	123.240.36.95	INFO	admin	Disabling Public links, PUBLIC_DOWNLOAD_FOLDER is not writeable!	folder=false;is_dir=false;is_writeable=false
06-23-14 13:20:38	123.240.36.95	INFO	admin	Disabling Public links, PUBLIC_DOWNLOAD_FOLDER is not writeable!	folder=false;is_dir=false;is_writeable=false
06-23-14 13:20:39	123.240.36.95	INFO	admin	Disabling Public links, PUBLIC_DOWNLOAD_FOLDER is not writeable!	folder=false;is_dir=false;is_writeable=false
06-23-14 13:20:43	123.240.36.95	INFO	admin	Disabling Public links, PUBLIC_DOWNLOAD_FOLDER is not writeable!	folder=false;is_dir=false;is_writeable=false
06-23-14 13:20:43	123.240.36.95	INFO	admin	Delete	files=/trunk/images/images
06-23-14 13:20:43	123.240.36.95	INFO	admin	Disabling Public links, PUBLIC_DOWNLOAD_FOLDER is not writeable!	folder=false;is_dir=false;is_writeable=false
06-23-14 13:20:44	123.240.36.95	INFO	admin	Disabling Public links, PUBLIC_DOWNLOAD_FOLDER is not writeable!	folder=false;is_dir=false;is_writeable=false
06-23-14 13:20:44	123.240.36.95	INFO	admin	Disabling Public links, PUBLIC_DOWNLOAD_FOLDER is not writeable!	folder=false;is_dir=false;is_writeable=false
06-23-14 13:20:47	123.240.36.95	INFO	admin	Disabling Public links, PUBLIC_DOWNLOAD_FOLDER is not writeable!	folder=false;is_dir=false;is_writeable=false
06-23-14 13:20:58	123.240.36.95	INFO	admin	Disabling Public links, PUBLIC_DOWNLOAD_FOLDER is not writeable!	folder=false;is_dir=false;is_writeable=false
06-23-14 13:21:06	123.240.36.95	INFO	admin	Disabling Public links, PUBLIC_DOWNLOAD_FOLDER is not writeable!	folder=false;is_dir=false;is_writeable=false
06-23-14 13:21:06	123.240.36.95	INFO	admin	Online Edition	file=/trunk/ckfinder/config.php
06-23-14 13:21:47	123.240.36.95	INFO	admin	Disabling Public links, PUBLIC_DOWNLOAD_FOLDER is not writeable!	folder=false;is_dir=false;is_writeable=false
06-23-14 14:11:43	210.61.142.43	INFO	admin	Disabling Public links, PUBLIC_DOWNLOAD_FOLDER is not writeable!	folder=false;is_dir=false;is_writeable=false
06-23-14 14:11:43	210.61.142.43	INFO	admin	Disabling Public links, PUBLIC_DOWNLOAD_FOLDER is not writeable!	folder=false;is_dir=false;is_writeable=false
06-23-14 14:11:44	210.61.142.43	INFO	admin	Disabling Public links, PUBLIC_DOWNLOAD_FOLDER is not writeable!	folder=false;is_dir=false;is_writeable=false
06-23-14 14:11:44	210.61.142.43	INFO	admin	Disabling Public links, PUBLIC_DOWNLOAD_FOLDER is not writeable!	folder=false;is_dir=false;is_writeable=false
06-23-14 14:11:44	210.61.142.43	INFO	admin	Disabling Public links, PUBLIC_DOWNLOAD_FOLDER is not writeable!	folder=false;is_dir=false;is_writeable=false
06-23-14 14:11:45	210.61.142.43	INFO	admin	Disabling Public links, PUBLIC_DOWNLOAD_FOLDER is not writeable!	folder=false;is_dir=false;is_writeable=false
06-23-14 14:11:46	210.61.142.43	INFO	admin	Disabling Public links, PUBLIC_DOWNLOAD_FOLDER is not writeable!	folder=false;is_dir=false;is_writeable=false
06-23-14 14:11:46	210.61.142.43	INFO	admin	Disabling Public links, PUBLIC_DOWNLOAD_FOLDER is not writeable!	folder=false;is_dir=false;is_writeable=false
06-23-14 14:11:50	210.61.142.43	INFO	admin	Disabling Public links, PUBLIC_DOWNLOAD_FOLDER is not writeable!	folder=false;is_dir=false;is_writeable=false
06-23-14 14:11:50	210.61.142.43	INFO	admin	Disabling Public links, PUBLIC_DOWNLOAD_FOLDER is not writeable!	folder=false;is_dir=false;is_writeable=false
06-23-14 14:11:54	210.61.142.43	INFO	admin	Disabling Public links, PUBLIC_DOWNLOAD_FOLDER is not writeable!	folder=false;is_dir=false;is_writeable=false
06-23-14 14:12:01	210.61.142.43	INFO	admin	Disabling Public links, PUBLIC_DOWNLOAD_FOLDER is not writeable!	folder=false;is_dir=false;is_writeable=false
06-23-14 14:13:44	210.61.142.43	INFO	admin	Disabling Public links, PUBLIC_DOWNLOAD_FOLDER is not writeable!	folder=false;is_dir=false;is_writeable=false
06-23-14 14:13:44	210.61.142.43	INFO	admin	Online Edition	file=/trunk/ckfinder/config.php
06-23-14 14:15:16	210.61.142.43	INFO	admin	Disabling Public links, PUBLIC_DOWNLOAD_FOLDER is not writeable!	folder=false;is_dir=false;is_writeable=false
06-23-14 14:15:37	210.61.142.43	INFO	admin	Disabling Public links, PUBLIC_DOWNLOAD_FOLDER is not writeable!	folder=false;is_dir=false;is_writeable=false
06-23-14 14:15:37	210.61.142.43	INFO	admin	Online Edition	file=/trunk/ckfinder/config.php
06-23-14 14:17:59	210.61.142.43	INFO	admin	Disabling Public links, PUBLIC_DOWNLOAD_FOLDER is not writeable!	folder=false;is_dir=false;is_writeable=false
06-23-14 14:18:01	210.61.142.43	INFO	admin	Disabling Public links, PUBLIC_DOWNLOAD_FOLDER is not writeable!	folder=false;is_dir=false;is_writeable=false
06-23-14 14:18:01	210.61.142.43	INFO	admin	Disabling Public links, PUBLIC_DOWNLOAD_FOLDER is not writeable!	folder=false;is_dir=false;is_writeable=false
06-23-14 14:18:04	210.61.142.43	INFO	admin	Disabling Public links, PUBLIC_DOWNLOAD_FOLDER is not writeable!	folder=false;is_dir=false;is_writeable=false
06-23-14 14:18:04	210.61.142.43	INFO	admin	Disabling Public links, PUBLIC_DOWNLOAD_FOLDER is not writeable!	folder=false;is_dir=false;is_writeable=false
06-23-14 14:18:08	210.61.142.43	INFO	admin	Disabling Public links, PUBLIC_DOWNLOAD_FOLDER is not writeable!	folder=false;is_dir=false;is_writeable=false
06-23-14 14:18:08	210.61.142.43	INFO	admin	Download	files=/trunk/application/controllers/teach.php
06-23-14 14:18:12	210.61.142.43	INFO	admin	Disabling Public links, PUBLIC_DOWNLOAD_FOLDER is not writeable!	folder=false;is_dir=false;is_writeable=false
06-23-14 14:18:49	210.61.142.43	INFO	admin	Disabling Public links, PUBLIC_DOWNLOAD_FOLDER is not writeable!	folder=false;is_dir=false;is_writeable=false
06-23-14 14:18:49	210.61.142.43	INFO	admin	Disabling Public links, PUBLIC_DOWNLOAD_FOLDER is not writeable!	folder=false;is_dir=false;is_writeable=false
06-23-14 14:18:54	210.61.142.43	INFO	admin	Disabling Public links, PUBLIC_DOWNLOAD_FOLDER is not writeable!	folder=false;is_dir=false;is_writeable=false
06-23-14 14:19:04	210.61.142.43	INFO	admin	Disabling Public links, PUBLIC_DOWNLOAD_FOLDER is not writeable!	folder=false;is_dir=false;is_writeable=false
06-23-14 14:19:50	210.61.142.43	INFO	admin	Disabling Public links, PUBLIC_DOWNLOAD_FOLDER is not writeable!	folder=false;is_dir=false;is_writeable=false
06-23-14 14:19:50	210.61.142.43	INFO	admin	Online Edition	file=/trunk/application/views/head.php
06-23-14 14:21:51	210.61.142.43	INFO	admin	Disabling Public links, PUBLIC_DOWNLOAD_FOLDER is not writeable!	folder=false;is_dir=false;is_writeable=false
06-23-14 14:21:56	210.61.142.43	INFO	admin	Disabling Public links, PUBLIC_DOWNLOAD_FOLDER is not writeable!	folder=false;is_dir=false;is_writeable=false
06-23-14 14:22:14	210.61.142.43	INFO	admin	Disabling Public links, PUBLIC_DOWNLOAD_FOLDER is not writeable!	folder=false;is_dir=false;is_writeable=false
06-23-14 14:22:14	210.61.142.43	INFO	admin	Online Edition	file=/trunk/ckfinder/config.php
06-23-14 14:22:30	210.61.142.43	INFO	admin	Disabling Public links, PUBLIC_DOWNLOAD_FOLDER is not writeable!	folder=false;is_dir=false;is_writeable=false
06-23-14 14:22:30	210.61.142.43	INFO	admin	Online Edition	file=/trunk/ckfinder/config.php
06-23-14 14:23:03	210.61.142.43	INFO	admin	Disabling Public links, PUBLIC_DOWNLOAD_FOLDER is not writeable!	folder=false;is_dir=false;is_writeable=false
06-23-14 14:23:03	210.61.142.43	INFO	admin	Disabling Public links, PUBLIC_DOWNLOAD_FOLDER is not writeable!	folder=false;is_dir=false;is_writeable=false
06-23-14 14:23:07	210.61.142.43	INFO	admin	Disabling Public links, PUBLIC_DOWNLOAD_FOLDER is not writeable!	folder=false;is_dir=false;is_writeable=false
06-23-14 14:23:33	210.61.142.43	INFO	admin	Disabling Public links, PUBLIC_DOWNLOAD_FOLDER is not writeable!	folder=false;is_dir=false;is_writeable=false
06-23-14 14:23:33	210.61.142.43	INFO	admin	Online Edition	file=/trunk/ckeditor/config.js
06-23-14 14:24:09	210.61.142.43	INFO	admin	Disabling Public links, PUBLIC_DOWNLOAD_FOLDER is not writeable!	folder=false;is_dir=false;is_writeable=false
06-23-14 14:24:09	210.61.142.43	INFO	admin	Online Edition	file=/trunk/ckeditor/config.js
06-23-14 14:29:44	210.61.142.43	INFO	admin	Disabling Public links, PUBLIC_DOWNLOAD_FOLDER is not writeable!	folder=false;is_dir=false;is_writeable=false
06-23-14 14:29:57	210.61.142.43	INFO	admin	Disabling Public links, PUBLIC_DOWNLOAD_FOLDER is not writeable!	folder=false;is_dir=false;is_writeable=false
06-23-14 14:30:07	210.61.142.43	INFO	admin	Disabling Public links, PUBLIC_DOWNLOAD_FOLDER is not writeable!	folder=false;is_dir=false;is_writeable=false
06-23-14 14:30:18	210.61.142.43	INFO	admin	Disabling Public links, PUBLIC_DOWNLOAD_FOLDER is not writeable!	folder=false;is_dir=false;is_writeable=false
06-23-14 14:30:24	210.61.142.43	INFO	admin	Disabling Public links, PUBLIC_DOWNLOAD_FOLDER is not writeable!	folder=false;is_dir=false;is_writeable=false
06-23-14 14:31:22	210.61.142.43	INFO	admin	Disabling Public links, PUBLIC_DOWNLOAD_FOLDER is not writeable!	folder=false;is_dir=false;is_writeable=false
06-23-14 14:31:22	210.61.142.43	INFO	admin	Online Edition	file=/trunk/ckfinder/config.php
06-23-14 14:31:42	210.61.142.43	INFO	admin	Disabling Public links, PUBLIC_DOWNLOAD_FOLDER is not writeable!	folder=false;is_dir=false;is_writeable=false
06-23-14 14:31:42	210.61.142.43	INFO	admin	Online Edition	file=/trunk/ckfinder/config.php
06-23-14 14:31:52	210.61.142.43	INFO	admin	Disabling Public links, PUBLIC_DOWNLOAD_FOLDER is not writeable!	folder=false;is_dir=false;is_writeable=false
06-23-14 14:31:52	210.61.142.43	INFO	admin	Online Edition	file=/trunk/ckfinder/config.php
06-23-14 14:33:54	210.61.142.43	INFO	admin	Disabling Public links, PUBLIC_DOWNLOAD_FOLDER is not writeable!	folder=false;is_dir=false;is_writeable=false
06-23-14 14:33:55	210.61.142.43	INFO	admin	Disabling Public links, PUBLIC_DOWNLOAD_FOLDER is not writeable!	folder=false;is_dir=false;is_writeable=false
06-23-14 14:34:03	210.61.142.43	INFO	admin	Disabling Public links, PUBLIC_DOWNLOAD_FOLDER is not writeable!	folder=false;is_dir=false;is_writeable=false
06-23-14 14:34:03	210.61.142.43	INFO	admin	Disabling Public links, PUBLIC_DOWNLOAD_FOLDER is not writeable!	folder=false;is_dir=false;is_writeable=false
06-23-14 14:34:04	210.61.142.43	INFO	admin	Disabling Public links, PUBLIC_DOWNLOAD_FOLDER is not writeable!	folder=false;is_dir=false;is_writeable=false
06-23-14 14:34:04	210.61.142.43	INFO	admin	Disabling Public links, PUBLIC_DOWNLOAD_FOLDER is not writeable!	folder=false;is_dir=false;is_writeable=false
06-23-14 14:34:10	210.61.142.43	INFO	admin	Disabling Public links, PUBLIC_DOWNLOAD_FOLDER is not writeable!	folder=false;is_dir=false;is_writeable=false
06-23-14 14:34:10	210.61.142.43	INFO	admin	Disabling Public links, PUBLIC_DOWNLOAD_FOLDER is not writeable!	folder=false;is_dir=false;is_writeable=false
06-23-14 14:34:16	210.61.142.43	INFO	admin	Disabling Public links, PUBLIC_DOWNLOAD_FOLDER is not writeable!	folder=false;is_dir=false;is_writeable=false
06-23-14 14:34:17	210.61.142.43	INFO	admin	Disabling Public links, PUBLIC_DOWNLOAD_FOLDER is not writeable!	folder=false;is_dir=false;is_writeable=false
06-23-14 14:34:17	210.61.142.43	INFO	admin	Disabling Public links, PUBLIC_DOWNLOAD_FOLDER is not writeable!	folder=false;is_dir=false;is_writeable=false
06-23-14 14:34:20	210.61.142.43	INFO	admin	Disabling Public links, PUBLIC_DOWNLOAD_FOLDER is not writeable!	folder=false;is_dir=false;is_writeable=false
06-23-14 14:34:39	210.61.142.43	INFO	admin	Disabling Public links, PUBLIC_DOWNLOAD_FOLDER is not writeable!	folder=false;is_dir=false;is_writeable=false
06-23-14 14:36:22	210.61.142.43	INFO	admin	Disabling Public links, PUBLIC_DOWNLOAD_FOLDER is not writeable!	folder=false;is_dir=false;is_writeable=false
06-23-14 14:36:22	210.61.142.43	INFO	admin	Online Edition	file=/trunk/ckfinder/core/ckfinder_php5.php
06-23-14 14:43:53	210.61.142.43	INFO	admin	Disabling Public links, PUBLIC_DOWNLOAD_FOLDER is not writeable!	folder=false;is_dir=false;is_writeable=false
06-23-14 14:43:57	210.61.142.43	INFO	admin	Disabling Public links, PUBLIC_DOWNLOAD_FOLDER is not writeable!	folder=false;is_dir=false;is_writeable=false
06-23-14 14:44:06	210.61.142.43	INFO	admin	Disabling Public links, PUBLIC_DOWNLOAD_FOLDER is not writeable!	folder=false;is_dir=false;is_writeable=false
06-23-14 14:50:31	210.61.142.43	INFO	admin	Disabling Public links, PUBLIC_DOWNLOAD_FOLDER is not writeable!	folder=false;is_dir=false;is_writeable=false
06-23-14 14:50:39	210.61.142.43	INFO	admin	Disabling Public links, PUBLIC_DOWNLOAD_FOLDER is not writeable!	folder=false;is_dir=false;is_writeable=false
06-23-14 14:51:58	210.61.142.43	INFO	admin	Disabling Public links, PUBLIC_DOWNLOAD_FOLDER is not writeable!	folder=false;is_dir=false;is_writeable=false
06-23-14 14:51:58	210.61.142.43	INFO	admin	Online Edition	file=/trunk/ckfinder/ckfinder.js
06-23-14 14:52:43	210.61.142.43	INFO	admin	Disabling Public links, PUBLIC_DOWNLOAD_FOLDER is not writeable!	folder=false;is_dir=false;is_writeable=false
06-23-14 14:52:43	210.61.142.43	INFO	admin	Online Edition	file=/trunk/ckfinder/ckfinder.js
06-23-14 14:54:02	210.61.142.43	INFO	admin	Disabling Public links, PUBLIC_DOWNLOAD_FOLDER is not writeable!	folder=false;is_dir=false;is_writeable=false
06-23-14 14:54:06	210.61.142.43	INFO	admin	Disabling Public links, PUBLIC_DOWNLOAD_FOLDER is not writeable!	folder=false;is_dir=false;is_writeable=false
06-23-14 14:54:06	210.61.142.43	INFO	admin	Disabling Public links, PUBLIC_DOWNLOAD_FOLDER is not writeable!	folder=false;is_dir=false;is_writeable=false
06-23-14 14:54:09	210.61.142.43	INFO	admin	Disabling Public links, PUBLIC_DOWNLOAD_FOLDER is not writeable!	folder=false;is_dir=false;is_writeable=false
06-23-14 14:54:10	210.61.142.43	INFO	admin	Disabling Public links, PUBLIC_DOWNLOAD_FOLDER is not writeable!	folder=false;is_dir=false;is_writeable=false
06-23-14 14:54:12	210.61.142.43	INFO	admin	Disabling Public links, PUBLIC_DOWNLOAD_FOLDER is not writeable!	folder=false;is_dir=false;is_writeable=false
06-23-14 14:54:12	210.61.142.43	INFO	admin	Disabling Public links, PUBLIC_DOWNLOAD_FOLDER is not writeable!	folder=false;is_dir=false;is_writeable=false
06-23-14 14:54:14	210.61.142.43	INFO	admin	Disabling Public links, PUBLIC_DOWNLOAD_FOLDER is not writeable!	folder=false;is_dir=false;is_writeable=false
06-23-14 14:55:20	210.61.142.43	INFO	admin	Disabling Public links, PUBLIC_DOWNLOAD_FOLDER is not writeable!	folder=false;is_dir=false;is_writeable=false
06-23-14 14:55:20	210.61.142.43	INFO	admin	Online Edition	file=/trunk/ckeditor/plugins/image/dialogs/image.js
06-23-14 14:56:12	210.61.142.43	INFO	admin	Disabling Public links, PUBLIC_DOWNLOAD_FOLDER is not writeable!	folder=false;is_dir=false;is_writeable=false
06-23-14 14:56:12	210.61.142.43	INFO	admin	Online Edition	file=/trunk/ckeditor/plugins/image/dialogs/image.js
06-23-14 14:56:12	210.61.142.43	INFO	admin	Disabling Public links, PUBLIC_DOWNLOAD_FOLDER is not writeable!	folder=false;is_dir=false;is_writeable=false
06-23-14 14:56:12	210.61.142.43	INFO	admin	Online Edition	file=/trunk/ckeditor/plugins/image/dialogs/image.js
06-23-14 14:56:13	210.61.142.43	INFO	admin	Disabling Public links, PUBLIC_DOWNLOAD_FOLDER is not writeable!	folder=false;is_dir=false;is_writeable=false
06-23-14 14:56:13	210.61.142.43	INFO	admin	Online Edition	file=/trunk/ckeditor/plugins/image/dialogs/image.js
06-23-14 14:56:13	210.61.142.43	INFO	admin	Disabling Public links, PUBLIC_DOWNLOAD_FOLDER is not writeable!	folder=false;is_dir=false;is_writeable=false
06-23-14 14:56:13	210.61.142.43	INFO	admin	Online Edition	file=/trunk/ckeditor/plugins/image/dialogs/image.js
06-23-14 14:56:13	210.61.142.43	INFO	admin	Disabling Public links, PUBLIC_DOWNLOAD_FOLDER is not writeable!	folder=false;is_dir=false;is_writeable=false
06-23-14 14:56:13	210.61.142.43	INFO	admin	Online Edition	file=/trunk/ckeditor/plugins/image/dialogs/image.js
06-23-14 14:57:17	210.61.142.43	INFO	admin	Disabling Public links, PUBLIC_DOWNLOAD_FOLDER is not writeable!	folder=false;is_dir=false;is_writeable=false
06-23-14 14:57:17	210.61.142.43	INFO	admin	Disabling Public links, PUBLIC_DOWNLOAD_FOLDER is not writeable!	folder=false;is_dir=false;is_writeable=false
06-23-14 14:57:25	210.61.142.43	INFO	admin	Disabling Public links, PUBLIC_DOWNLOAD_FOLDER is not writeable!	folder=false;is_dir=false;is_writeable=false
06-23-14 14:57:26	210.61.142.43	INFO	admin	Disabling Public links, PUBLIC_DOWNLOAD_FOLDER is not writeable!	folder=false;is_dir=false;is_writeable=false
06-23-14 14:57:28	210.61.142.43	INFO	admin	Disabling Public links, PUBLIC_DOWNLOAD_FOLDER is not writeable!	folder=false;is_dir=false;is_writeable=false
06-23-14 14:57:28	210.61.142.43	INFO	admin	Disabling Public links, PUBLIC_DOWNLOAD_FOLDER is not writeable!	folder=false;is_dir=false;is_writeable=false
06-23-14 14:57:29	210.61.142.43	INFO	admin	Disabling Public links, PUBLIC_DOWNLOAD_FOLDER is not writeable!	folder=false;is_dir=false;is_writeable=false
06-23-14 14:57:30	210.61.142.43	INFO	admin	Disabling Public links, PUBLIC_DOWNLOAD_FOLDER is not writeable!	folder=false;is_dir=false;is_writeable=false
06-23-14 14:57:30	210.61.142.43	INFO	admin	Disabling Public links, PUBLIC_DOWNLOAD_FOLDER is not writeable!	folder=false;is_dir=false;is_writeable=false
06-23-14 14:57:30	210.61.142.43	INFO	admin	Disabling Public links, PUBLIC_DOWNLOAD_FOLDER is not writeable!	folder=false;is_dir=false;is_writeable=false
06-23-14 14:57:31	210.61.142.43	INFO	admin	Disabling Public links, PUBLIC_DOWNLOAD_FOLDER is not writeable!	folder=false;is_dir=false;is_writeable=false
06-23-14 14:57:32	210.61.142.43	INFO	admin	Disabling Public links, PUBLIC_DOWNLOAD_FOLDER is not writeable!	folder=false;is_dir=false;is_writeable=false
06-23-14 14:57:34	210.61.142.43	INFO	admin	Disabling Public links, PUBLIC_DOWNLOAD_FOLDER is not writeable!	folder=false;is_dir=false;is_writeable=false
06-23-14 14:57:35	210.61.142.43	INFO	admin	Disabling Public links, PUBLIC_DOWNLOAD_FOLDER is not writeable!	folder=false;is_dir=false;is_writeable=false
06-23-14 14:59:33	210.61.142.43	INFO	admin	Disabling Public links, PUBLIC_DOWNLOAD_FOLDER is not writeable!	folder=false;is_dir=false;is_writeable=false
06-23-14 14:59:34	210.61.142.43	INFO	admin	Disabling Public links, PUBLIC_DOWNLOAD_FOLDER is not writeable!	folder=false;is_dir=false;is_writeable=false
06-23-14 14:59:40	210.61.142.43	INFO	admin	Disabling Public links, PUBLIC_DOWNLOAD_FOLDER is not writeable!	folder=false;is_dir=false;is_writeable=false
06-23-14 14:59:42	210.61.142.43	INFO	admin	Disabling Public links, PUBLIC_DOWNLOAD_FOLDER is not writeable!	folder=false;is_dir=false;is_writeable=false
06-23-14 14:59:45	210.61.142.43	INFO	admin	Disabling Public links, PUBLIC_DOWNLOAD_FOLDER is not writeable!	folder=false;is_dir=false;is_writeable=false
06-23-14 15:00:10	210.61.142.43	INFO	admin	Disabling Public links, PUBLIC_DOWNLOAD_FOLDER is not writeable!	folder=false;is_dir=false;is_writeable=false
06-23-14 15:00:10	210.61.142.43	INFO	admin	Online Edition	file=/trunk/ckeditor/plugins/image/dialogs/image.js
06-23-14 15:01:03	210.61.142.43	INFO	admin	Disabling Public links, PUBLIC_DOWNLOAD_FOLDER is not writeable!	folder=false;is_dir=false;is_writeable=false
06-23-14 15:01:24	210.61.142.43	INFO	admin	Disabling Public links, PUBLIC_DOWNLOAD_FOLDER is not writeable!	folder=false;is_dir=false;is_writeable=false
06-23-14 15:01:41	210.61.142.43	INFO	admin	Disabling Public links, PUBLIC_DOWNLOAD_FOLDER is not writeable!	folder=false;is_dir=false;is_writeable=false
06-23-14 15:01:43	210.61.142.43	INFO	admin	Disabling Public links, PUBLIC_DOWNLOAD_FOLDER is not writeable!	folder=false;is_dir=false;is_writeable=false
06-23-14 15:02:47	210.61.142.43	INFO	admin	Disabling Public links, PUBLIC_DOWNLOAD_FOLDER is not writeable!	folder=false;is_dir=false;is_writeable=false
06-23-14 15:05:11	210.61.142.43	INFO	admin	Disabling Public links, PUBLIC_DOWNLOAD_FOLDER is not writeable!	folder=false;is_dir=false;is_writeable=false
06-23-14 15:05:51	210.61.142.43	INFO	admin	Disabling Public links, PUBLIC_DOWNLOAD_FOLDER is not writeable!	folder=false;is_dir=false;is_writeable=false
06-23-14 15:05:51	210.61.142.43	INFO	admin	Online Edition	file=/trunk/ckfinder/ckfinder.js
06-23-14 15:07:12	210.61.142.43	INFO	admin	Disabling Public links, PUBLIC_DOWNLOAD_FOLDER is not writeable!	folder=false;is_dir=false;is_writeable=false
06-23-14 15:07:12	210.61.142.43	INFO	admin	Disabling Public links, PUBLIC_DOWNLOAD_FOLDER is not writeable!	folder=false;is_dir=false;is_writeable=false
06-23-14 15:07:13	210.61.142.43	INFO	admin	Disabling Public links, PUBLIC_DOWNLOAD_FOLDER is not writeable!	folder=false;is_dir=false;is_writeable=false
06-23-14 15:07:14	210.61.142.43	INFO	admin	Disabling Public links, PUBLIC_DOWNLOAD_FOLDER is not writeable!	folder=false;is_dir=false;is_writeable=false
06-23-14 15:07:17	210.61.142.43	INFO	admin	Disabling Public links, PUBLIC_DOWNLOAD_FOLDER is not writeable!	folder=false;is_dir=false;is_writeable=false
06-23-14 15:07:34	210.61.142.43	INFO	admin	Disabling Public links, PUBLIC_DOWNLOAD_FOLDER is not writeable!	folder=false;is_dir=false;is_writeable=false
06-23-14 15:07:34	210.61.142.43	INFO	admin	Online Edition	file=/trunk/ckfinder/core/ckfinder_php5.php
06-23-14 15:09:04	210.61.142.43	INFO	admin	Disabling Public links, PUBLIC_DOWNLOAD_FOLDER is not writeable!	folder=false;is_dir=false;is_writeable=false
06-23-14 15:09:06	210.61.142.43	INFO	admin	Disabling Public links, PUBLIC_DOWNLOAD_FOLDER is not writeable!	folder=false;is_dir=false;is_writeable=false
06-23-14 15:09:25	210.61.142.43	INFO	admin	Log In	
06-23-14 15:09:25	210.61.142.43	INFO	admin	Disabling Public links, PUBLIC_DOWNLOAD_FOLDER is not writeable!	folder=false;is_dir=false;is_writeable=false
06-23-14 15:09:26	210.61.142.43	INFO	admin	Disabling Public links, PUBLIC_DOWNLOAD_FOLDER is not writeable!	folder=false;is_dir=false;is_writeable=false
06-23-14 15:09:26	210.61.142.43	INFO	admin	Disabling Public links, PUBLIC_DOWNLOAD_FOLDER is not writeable!	folder=false;is_dir=false;is_writeable=false
06-23-14 15:09:26	210.61.142.43	INFO	admin	Disabling Public links, PUBLIC_DOWNLOAD_FOLDER is not writeable!	folder=false;is_dir=false;is_writeable=false
06-23-14 15:09:26	210.61.142.43	INFO	admin	Disabling Public links, PUBLIC_DOWNLOAD_FOLDER is not writeable!	folder=false;is_dir=false;is_writeable=false
06-23-14 15:09:26	210.61.142.43	INFO	admin	Disabling Public links, PUBLIC_DOWNLOAD_FOLDER is not writeable!	folder=false;is_dir=false;is_writeable=false
06-23-14 15:09:27	210.61.142.43	INFO	admin	Disabling Public links, PUBLIC_DOWNLOAD_FOLDER is not writeable!	folder=false;is_dir=false;is_writeable=false
06-23-14 15:09:27	210.61.142.43	INFO	admin	Disabling Public links, PUBLIC_DOWNLOAD_FOLDER is not writeable!	folder=false;is_dir=false;is_writeable=false
06-23-14 15:09:27	210.61.142.43	INFO	admin	Disabling Public links, PUBLIC_DOWNLOAD_FOLDER is not writeable!	folder=false;is_dir=false;is_writeable=false
06-23-14 15:09:27	210.61.142.43	INFO	admin	Disabling Public links, PUBLIC_DOWNLOAD_FOLDER is not writeable!	folder=false;is_dir=false;is_writeable=false
06-23-14 15:09:28	210.61.142.43	INFO	admin	Disabling Public links, PUBLIC_DOWNLOAD_FOLDER is not writeable!	folder=false;is_dir=false;is_writeable=false
06-23-14 15:09:41	210.61.142.43	INFO	admin	Disabling Public links, PUBLIC_DOWNLOAD_FOLDER is not writeable!	folder=false;is_dir=false;is_writeable=false
06-23-14 15:09:41	210.61.142.43	INFO	admin	Disabling Public links, PUBLIC_DOWNLOAD_FOLDER is not writeable!	folder=false;is_dir=false;is_writeable=false
06-23-14 15:09:42	210.61.142.43	INFO	admin	Disabling Public links, PUBLIC_DOWNLOAD_FOLDER is not writeable!	folder=false;is_dir=false;is_writeable=false
06-23-14 15:09:43	210.61.142.43	INFO	admin	Disabling Public links, PUBLIC_DOWNLOAD_FOLDER is not writeable!	folder=false;is_dir=false;is_writeable=false
06-23-14 15:09:43	210.61.142.43	INFO	admin	Disabling Public links, PUBLIC_DOWNLOAD_FOLDER is not writeable!	folder=false;is_dir=false;is_writeable=false
06-23-14 15:09:43	210.61.142.43	INFO	admin	Disabling Public links, PUBLIC_DOWNLOAD_FOLDER is not writeable!	folder=false;is_dir=false;is_writeable=false
06-23-14 15:09:54	210.61.142.43	INFO	admin	Disabling Public links, PUBLIC_DOWNLOAD_FOLDER is not writeable!	folder=false;is_dir=false;is_writeable=false
06-23-14 15:09:55	210.61.142.43	INFO	admin	Disabling Public links, PUBLIC_DOWNLOAD_FOLDER is not writeable!	folder=false;is_dir=false;is_writeable=false
06-23-14 15:09:55	210.61.142.43	INFO	admin	Disabling Public links, PUBLIC_DOWNLOAD_FOLDER is not writeable!	folder=false;is_dir=false;is_writeable=false
06-23-14 15:09:56	210.61.142.43	INFO	admin	Disabling Public links, PUBLIC_DOWNLOAD_FOLDER is not writeable!	folder=false;is_dir=false;is_writeable=false
06-23-14 15:09:56	210.61.142.43	INFO	admin	Disabling Public links, PUBLIC_DOWNLOAD_FOLDER is not writeable!	folder=false;is_dir=false;is_writeable=false
06-23-14 15:09:57	210.61.142.43	INFO	admin	Disabling Public links, PUBLIC_DOWNLOAD_FOLDER is not writeable!	folder=false;is_dir=false;is_writeable=false
06-23-14 15:10:03	210.61.142.43	INFO	admin	Disabling Public links, PUBLIC_DOWNLOAD_FOLDER is not writeable!	folder=false;is_dir=false;is_writeable=false
06-23-14 15:10:03	210.61.142.43	INFO	admin	Switch Repository	rep. id=1
06-23-14 15:10:30	210.61.142.43	INFO	admin	Disabling Public links, PUBLIC_DOWNLOAD_FOLDER is not writeable!	folder=false;is_dir=false;is_writeable=false
06-23-14 15:10:30	210.61.142.43	INFO	admin	Switch Repository	rep. id=c1a19f4225b1380aa0d984224ca59ecb
06-23-14 15:10:30	210.61.142.43	INFO	admin	Disabling Public links, PUBLIC_DOWNLOAD_FOLDER is not writeable!	folder=false;is_dir=false;is_writeable=false
06-23-14 15:10:30	210.61.142.43	INFO	admin	Disabling Public links, PUBLIC_DOWNLOAD_FOLDER is not writeable!	folder=false;is_dir=false;is_writeable=false
06-23-14 15:10:32	210.61.142.43	INFO	admin	Disabling Public links, PUBLIC_DOWNLOAD_FOLDER is not writeable!	folder=false;is_dir=false;is_writeable=false
06-23-14 15:10:32	210.61.142.43	INFO	admin	Disabling Public links, PUBLIC_DOWNLOAD_FOLDER is not writeable!	folder=false;is_dir=false;is_writeable=false
06-23-14 15:10:32	210.61.142.43	INFO	admin	Disabling Public links, PUBLIC_DOWNLOAD_FOLDER is not writeable!	folder=false;is_dir=false;is_writeable=false
06-23-14 15:10:32	210.61.142.43	INFO	admin	Disabling Public links, PUBLIC_DOWNLOAD_FOLDER is not writeable!	folder=false;is_dir=false;is_writeable=false
06-23-14 15:10:34	210.61.142.43	INFO	admin	Disabling Public links, PUBLIC_DOWNLOAD_FOLDER is not writeable!	folder=false;is_dir=false;is_writeable=false
06-23-14 15:11:54	210.61.142.43	INFO	admin	Disabling Public links, PUBLIC_DOWNLOAD_FOLDER is not writeable!	folder=false;is_dir=false;is_writeable=false
06-23-14 15:12:22	210.61.142.43	INFO	admin	Log In	
06-23-14 15:12:22	210.61.142.43	INFO	admin	Disabling Public links, PUBLIC_DOWNLOAD_FOLDER is not writeable!	folder=false;is_dir=false;is_writeable=false
06-23-14 15:12:22	210.61.142.43	INFO	admin	Disabling Public links, PUBLIC_DOWNLOAD_FOLDER is not writeable!	folder=false;is_dir=false;is_writeable=false
06-23-14 15:12:22	210.61.142.43	INFO	admin	Disabling Public links, PUBLIC_DOWNLOAD_FOLDER is not writeable!	folder=false;is_dir=false;is_writeable=false
06-23-14 15:12:22	210.61.142.43	INFO	admin	Disabling Public links, PUBLIC_DOWNLOAD_FOLDER is not writeable!	folder=false;is_dir=false;is_writeable=false
06-23-14 15:12:22	210.61.142.43	INFO	admin	Disabling Public links, PUBLIC_DOWNLOAD_FOLDER is not writeable!	folder=false;is_dir=false;is_writeable=false
06-23-14 15:12:23	210.61.142.43	INFO	admin	Disabling Public links, PUBLIC_DOWNLOAD_FOLDER is not writeable!	folder=false;is_dir=false;is_writeable=false
06-23-14 15:12:24	210.61.142.43	INFO	admin	Disabling Public links, PUBLIC_DOWNLOAD_FOLDER is not writeable!	folder=false;is_dir=false;is_writeable=false
06-23-14 15:12:24	210.61.142.43	INFO	admin	Disabling Public links, PUBLIC_DOWNLOAD_FOLDER is not writeable!	folder=false;is_dir=false;is_writeable=false
06-23-14 15:12:24	210.61.142.43	INFO	admin	Disabling Public links, PUBLIC_DOWNLOAD_FOLDER is not writeable!	folder=false;is_dir=false;is_writeable=false
06-23-14 15:12:24	210.61.142.43	INFO	admin	Disabling Public links, PUBLIC_DOWNLOAD_FOLDER is not writeable!	folder=false;is_dir=false;is_writeable=false
06-23-14 15:12:25	210.61.142.43	INFO	admin	Disabling Public links, PUBLIC_DOWNLOAD_FOLDER is not writeable!	folder=false;is_dir=false;is_writeable=false
06-23-14 15:12:25	210.61.142.43	INFO	admin	Disabling Public links, PUBLIC_DOWNLOAD_FOLDER is not writeable!	folder=false;is_dir=false;is_writeable=false
06-23-14 15:12:25	210.61.142.43	INFO	admin	Switch Repository	rep. id=c1a19f4225b1380aa0d984224ca59ecb
06-23-14 15:12:25	210.61.142.43	INFO	admin	Disabling Public links, PUBLIC_DOWNLOAD_FOLDER is not writeable!	folder=false;is_dir=false;is_writeable=false
06-23-14 15:12:25	210.61.142.43	INFO	admin	Disabling Public links, PUBLIC_DOWNLOAD_FOLDER is not writeable!	folder=false;is_dir=false;is_writeable=false
06-23-14 15:12:26	210.61.142.43	INFO	admin	Disabling Public links, PUBLIC_DOWNLOAD_FOLDER is not writeable!	folder=false;is_dir=false;is_writeable=false
06-23-14 15:12:27	210.61.142.43	INFO	admin	Disabling Public links, PUBLIC_DOWNLOAD_FOLDER is not writeable!	folder=false;is_dir=false;is_writeable=false
06-23-14 15:12:27	210.61.142.43	INFO	admin	Disabling Public links, PUBLIC_DOWNLOAD_FOLDER is not writeable!	folder=false;is_dir=false;is_writeable=false
06-23-14 15:12:28	210.61.142.43	INFO	admin	Disabling Public links, PUBLIC_DOWNLOAD_FOLDER is not writeable!	folder=false;is_dir=false;is_writeable=false
06-23-14 15:12:28	210.61.142.43	INFO	admin	Disabling Public links, PUBLIC_DOWNLOAD_FOLDER is not writeable!	folder=false;is_dir=false;is_writeable=false
06-23-14 15:12:31	210.61.142.43	INFO	admin	Disabling Public links, PUBLIC_DOWNLOAD_FOLDER is not writeable!	folder=false;is_dir=false;is_writeable=false
06-23-14 15:12:32	210.61.142.43	INFO	admin	Disabling Public links, PUBLIC_DOWNLOAD_FOLDER is not writeable!	folder=false;is_dir=false;is_writeable=false
06-23-14 15:12:32	210.61.142.43	INFO	admin	Disabling Public links, PUBLIC_DOWNLOAD_FOLDER is not writeable!	folder=false;is_dir=false;is_writeable=false
06-23-14 15:12:32	210.61.142.43	INFO	admin	Disabling Public links, PUBLIC_DOWNLOAD_FOLDER is not writeable!	folder=false;is_dir=false;is_writeable=false
06-23-14 15:12:34	210.61.142.43	INFO	admin	Disabling Public links, PUBLIC_DOWNLOAD_FOLDER is not writeable!	folder=false;is_dir=false;is_writeable=false
06-23-14 15:12:40	210.61.142.43	INFO	admin	Disabling Public links, PUBLIC_DOWNLOAD_FOLDER is not writeable!	folder=false;is_dir=false;is_writeable=false
06-23-14 15:12:40	210.61.142.43	INFO	admin	Disabling Public links, PUBLIC_DOWNLOAD_FOLDER is not writeable!	folder=false;is_dir=false;is_writeable=false
06-23-14 15:12:48	210.61.142.43	INFO	admin	Disabling Public links, PUBLIC_DOWNLOAD_FOLDER is not writeable!	folder=false;is_dir=false;is_writeable=false
06-23-14 15:12:48	210.61.142.43	INFO	admin	Create File	file=/trunk/ckfinder/ck.js
06-23-14 15:12:48	210.61.142.43	INFO	admin	Disabling Public links, PUBLIC_DOWNLOAD_FOLDER is not writeable!	folder=false;is_dir=false;is_writeable=false
06-23-14 15:12:48	210.61.142.43	INFO	admin	Disabling Public links, PUBLIC_DOWNLOAD_FOLDER is not writeable!	folder=false;is_dir=false;is_writeable=false
06-23-14 15:12:52	210.61.142.43	INFO	admin	Disabling Public links, PUBLIC_DOWNLOAD_FOLDER is not writeable!	folder=false;is_dir=false;is_writeable=false
06-23-14 15:13:02	210.61.142.43	INFO	admin	Disabling Public links, PUBLIC_DOWNLOAD_FOLDER is not writeable!	folder=false;is_dir=false;is_writeable=false
06-23-14 15:13:02	210.61.142.43	INFO	admin	Online Edition	file=/trunk/ckfinder/ck.js
06-23-14 15:13:12	210.61.142.43	INFO	admin	Disabling Public links, PUBLIC_DOWNLOAD_FOLDER is not writeable!	folder=false;is_dir=false;is_writeable=false
06-23-14 15:13:12	210.61.142.43	INFO	admin	Rename	original=/trunk/ckfinder/ckfinder.js;new=ckfinder1.js
06-23-14 15:13:12	210.61.142.43	INFO	admin	Disabling Public links, PUBLIC_DOWNLOAD_FOLDER is not writeable!	folder=false;is_dir=false;is_writeable=false
06-23-14 15:13:13	210.61.142.43	INFO	admin	Disabling Public links, PUBLIC_DOWNLOAD_FOLDER is not writeable!	folder=false;is_dir=false;is_writeable=false
06-23-14 15:13:19	210.61.142.43	INFO	admin	Disabling Public links, PUBLIC_DOWNLOAD_FOLDER is not writeable!	folder=false;is_dir=false;is_writeable=false
06-23-14 15:13:19	210.61.142.43	INFO	admin	Rename	original=/trunk/ckfinder/ck.js;new=ckfinder.js
06-23-14 15:13:19	210.61.142.43	INFO	admin	Disabling Public links, PUBLIC_DOWNLOAD_FOLDER is not writeable!	folder=false;is_dir=false;is_writeable=false
06-23-14 15:13:20	210.61.142.43	INFO	admin	Disabling Public links, PUBLIC_DOWNLOAD_FOLDER is not writeable!	folder=false;is_dir=false;is_writeable=false
06-23-14 15:16:25	210.61.142.43	INFO	admin	Disabling Public links, PUBLIC_DOWNLOAD_FOLDER is not writeable!	folder=false;is_dir=false;is_writeable=false
06-23-14 15:16:25	210.61.142.43	INFO	admin	Disabling Public links, PUBLIC_DOWNLOAD_FOLDER is not writeable!	folder=false;is_dir=false;is_writeable=false
06-23-14 15:16:25	210.61.142.43	INFO	admin	Disabling Public links, PUBLIC_DOWNLOAD_FOLDER is not writeable!	folder=false;is_dir=false;is_writeable=false
06-23-14 15:16:26	210.61.142.43	INFO	admin	Disabling Public links, PUBLIC_DOWNLOAD_FOLDER is not writeable!	folder=false;is_dir=false;is_writeable=false
06-23-14 15:17:56	210.61.142.43	INFO	admin	Log In	
06-23-14 15:17:56	210.61.142.43	INFO	admin	Disabling Public links, PUBLIC_DOWNLOAD_FOLDER is not writeable!	folder=false;is_dir=false;is_writeable=false
06-23-14 15:17:56	210.61.142.43	INFO	admin	Disabling Public links, PUBLIC_DOWNLOAD_FOLDER is not writeable!	folder=false;is_dir=false;is_writeable=false
06-23-14 15:17:56	210.61.142.43	INFO	admin	Disabling Public links, PUBLIC_DOWNLOAD_FOLDER is not writeable!	folder=false;is_dir=false;is_writeable=false
06-23-14 15:17:56	210.61.142.43	INFO	admin	Disabling Public links, PUBLIC_DOWNLOAD_FOLDER is not writeable!	folder=false;is_dir=false;is_writeable=false
06-23-14 15:17:57	210.61.142.43	INFO	admin	Disabling Public links, PUBLIC_DOWNLOAD_FOLDER is not writeable!	folder=false;is_dir=false;is_writeable=false
06-23-14 15:17:57	210.61.142.43	INFO	admin	Disabling Public links, PUBLIC_DOWNLOAD_FOLDER is not writeable!	folder=false;is_dir=false;is_writeable=false
06-23-14 15:17:57	210.61.142.43	INFO	admin	Disabling Public links, PUBLIC_DOWNLOAD_FOLDER is not writeable!	folder=false;is_dir=false;is_writeable=false
06-23-14 15:17:58	210.61.142.43	INFO	admin	Disabling Public links, PUBLIC_DOWNLOAD_FOLDER is not writeable!	folder=false;is_dir=false;is_writeable=false
06-23-14 15:17:58	210.61.142.43	INFO	admin	Disabling Public links, PUBLIC_DOWNLOAD_FOLDER is not writeable!	folder=false;is_dir=false;is_writeable=false
06-23-14 15:17:58	210.61.142.43	INFO	admin	Disabling Public links, PUBLIC_DOWNLOAD_FOLDER is not writeable!	folder=false;is_dir=false;is_writeable=false
06-23-14 15:17:58	210.61.142.43	INFO	admin	Disabling Public links, PUBLIC_DOWNLOAD_FOLDER is not writeable!	folder=false;is_dir=false;is_writeable=false
06-23-14 15:17:58	210.61.142.43	INFO	admin	Disabling Public links, PUBLIC_DOWNLOAD_FOLDER is not writeable!	folder=false;is_dir=false;is_writeable=false
06-23-14 15:18:00	210.61.142.43	INFO	admin	Disabling Public links, PUBLIC_DOWNLOAD_FOLDER is not writeable!	folder=false;is_dir=false;is_writeable=false
06-23-14 15:18:04	210.61.142.43	INFO	admin	Disabling Public links, PUBLIC_DOWNLOAD_FOLDER is not writeable!	folder=false;is_dir=false;is_writeable=false
06-23-14 15:18:04	210.61.142.43	INFO	admin	Disabling Public links, PUBLIC_DOWNLOAD_FOLDER is not writeable!	folder=false;is_dir=false;is_writeable=false
06-23-14 15:21:13	210.61.142.43	INFO	admin	Disabling Public links, PUBLIC_DOWNLOAD_FOLDER is not writeable!	folder=false;is_dir=false;is_writeable=false
06-23-14 15:21:13	210.61.142.43	INFO	admin	Disabling Public links, PUBLIC_DOWNLOAD_FOLDER is not writeable!	folder=false;is_dir=false;is_writeable=false
06-23-14 15:21:13	210.61.142.43	INFO	admin	Disabling Public links, PUBLIC_DOWNLOAD_FOLDER is not writeable!	folder=false;is_dir=false;is_writeable=false
06-23-14 15:21:14	210.61.142.43	INFO	admin	Disabling Public links, PUBLIC_DOWNLOAD_FOLDER is not writeable!	folder=false;is_dir=false;is_writeable=false
06-23-14 15:21:14	210.61.142.43	INFO	admin	Disabling Public links, PUBLIC_DOWNLOAD_FOLDER is not writeable!	folder=false;is_dir=false;is_writeable=false
06-23-14 15:21:15	210.61.142.43	INFO	admin	Disabling Public links, PUBLIC_DOWNLOAD_FOLDER is not writeable!	folder=false;is_dir=false;is_writeable=false
06-23-14 15:21:15	210.61.142.43	INFO	admin	Disabling Public links, PUBLIC_DOWNLOAD_FOLDER is not writeable!	folder=false;is_dir=false;is_writeable=false
06-23-14 15:21:15	210.61.142.43	INFO	admin	Disabling Public links, PUBLIC_DOWNLOAD_FOLDER is not writeable!	folder=false;is_dir=false;is_writeable=false
06-23-14 15:21:16	210.61.142.43	INFO	admin	Disabling Public links, PUBLIC_DOWNLOAD_FOLDER is not writeable!	folder=false;is_dir=false;is_writeable=false
06-23-14 15:21:35	210.61.142.43	INFO	admin	Log In	
06-23-14 15:21:35	210.61.142.43	INFO	admin	Disabling Public links, PUBLIC_DOWNLOAD_FOLDER is not writeable!	folder=false;is_dir=false;is_writeable=false
06-23-14 15:21:36	210.61.142.43	INFO	admin	Disabling Public links, PUBLIC_DOWNLOAD_FOLDER is not writeable!	folder=false;is_dir=false;is_writeable=false
06-23-14 15:21:36	210.61.142.43	INFO	admin	Disabling Public links, PUBLIC_DOWNLOAD_FOLDER is not writeable!	folder=false;is_dir=false;is_writeable=false
06-23-14 15:21:36	210.61.142.43	INFO	admin	Disabling Public links, PUBLIC_DOWNLOAD_FOLDER is not writeable!	folder=false;is_dir=false;is_writeable=false
06-23-14 15:21:36	210.61.142.43	INFO	admin	Disabling Public links, PUBLIC_DOWNLOAD_FOLDER is not writeable!	folder=false;is_dir=false;is_writeable=false
06-23-14 15:21:38	210.61.142.43	INFO	admin	Disabling Public links, PUBLIC_DOWNLOAD_FOLDER is not writeable!	folder=false;is_dir=false;is_writeable=false
06-23-14 15:21:38	210.61.142.43	INFO	admin	Disabling Public links, PUBLIC_DOWNLOAD_FOLDER is not writeable!	folder=false;is_dir=false;is_writeable=false
06-23-14 15:21:38	210.61.142.43	INFO	admin	Disabling Public links, PUBLIC_DOWNLOAD_FOLDER is not writeable!	folder=false;is_dir=false;is_writeable=false
06-23-14 15:21:39	210.61.142.43	INFO	admin	Disabling Public links, PUBLIC_DOWNLOAD_FOLDER is not writeable!	folder=false;is_dir=false;is_writeable=false
06-23-14 15:21:39	210.61.142.43	INFO	admin	Disabling Public links, PUBLIC_DOWNLOAD_FOLDER is not writeable!	folder=false;is_dir=false;is_writeable=false
06-23-14 15:21:39	210.61.142.43	INFO	admin	Disabling Public links, PUBLIC_DOWNLOAD_FOLDER is not writeable!	folder=false;is_dir=false;is_writeable=false
06-23-14 15:21:45	210.61.142.43	INFO	admin	Disabling Public links, PUBLIC_DOWNLOAD_FOLDER is not writeable!	folder=false;is_dir=false;is_writeable=false
06-23-14 15:21:45	210.61.142.43	INFO	admin	Create Dir	dir=/aaa/test
06-23-14 15:21:45	210.61.142.43	INFO	admin	Disabling Public links, PUBLIC_DOWNLOAD_FOLDER is not writeable!	folder=false;is_dir=false;is_writeable=false
06-23-14 15:21:45	210.61.142.43	INFO	admin	Disabling Public links, PUBLIC_DOWNLOAD_FOLDER is not writeable!	folder=false;is_dir=false;is_writeable=false
06-23-14 15:21:46	210.61.142.43	INFO	admin	Disabling Public links, PUBLIC_DOWNLOAD_FOLDER is not writeable!	folder=false;is_dir=false;is_writeable=false
06-23-14 15:21:47	210.61.142.43	INFO	admin	Disabling Public links, PUBLIC_DOWNLOAD_FOLDER is not writeable!	folder=false;is_dir=false;is_writeable=false
06-23-14 15:22:10	210.61.142.43	INFO	admin	Disabling Public links, PUBLIC_DOWNLOAD_FOLDER is not writeable!	folder=false;is_dir=false;is_writeable=false
06-23-14 15:22:10	210.61.142.43	INFO	admin	Disabling Public links, PUBLIC_DOWNLOAD_FOLDER is not writeable!	folder=false;is_dir=false;is_writeable=false
06-23-14 15:22:10	210.61.142.43	INFO	admin	Switch Repository	rep. id=c1a19f4225b1380aa0d984224ca59ecb
06-23-14 15:22:10	210.61.142.43	INFO	admin	Disabling Public links, PUBLIC_DOWNLOAD_FOLDER is not writeable!	folder=false;is_dir=false;is_writeable=false
06-23-14 15:22:11	210.61.142.43	INFO	admin	Disabling Public links, PUBLIC_DOWNLOAD_FOLDER is not writeable!	folder=false;is_dir=false;is_writeable=false
06-23-14 15:22:13	210.61.142.43	INFO	admin	Disabling Public links, PUBLIC_DOWNLOAD_FOLDER is not writeable!	folder=false;is_dir=false;is_writeable=false
06-23-14 15:22:13	210.61.142.43	INFO	admin	Disabling Public links, PUBLIC_DOWNLOAD_FOLDER is not writeable!	folder=false;is_dir=false;is_writeable=false
06-23-14 15:22:13	210.61.142.43	INFO	admin	Disabling Public links, PUBLIC_DOWNLOAD_FOLDER is not writeable!	folder=false;is_dir=false;is_writeable=false
06-23-14 15:22:14	210.61.142.43	INFO	admin	Disabling Public links, PUBLIC_DOWNLOAD_FOLDER is not writeable!	folder=false;is_dir=false;is_writeable=false
06-23-14 15:22:18	210.61.142.43	INFO	admin	Disabling Public links, PUBLIC_DOWNLOAD_FOLDER is not writeable!	folder=false;is_dir=false;is_writeable=false
06-23-14 15:22:20	210.61.142.43	INFO	admin	Disabling Public links, PUBLIC_DOWNLOAD_FOLDER is not writeable!	folder=false;is_dir=false;is_writeable=false
06-23-14 15:22:25	210.61.142.43	INFO	admin	Disabling Public links, PUBLIC_DOWNLOAD_FOLDER is not writeable!	folder=false;is_dir=false;is_writeable=false
06-23-14 15:22:26	210.61.142.43	INFO	admin	Disabling Public links, PUBLIC_DOWNLOAD_FOLDER is not writeable!	folder=false;is_dir=false;is_writeable=false
06-23-14 15:22:26	210.61.142.43	INFO	admin	Disabling Public links, PUBLIC_DOWNLOAD_FOLDER is not writeable!	folder=false;is_dir=false;is_writeable=false
06-23-14 15:22:35	210.61.142.43	INFO	admin	Disabling Public links, PUBLIC_DOWNLOAD_FOLDER is not writeable!	folder=false;is_dir=false;is_writeable=false
06-23-14 15:22:57	210.61.142.43	INFO	admin	Disabling Public links, PUBLIC_DOWNLOAD_FOLDER is not writeable!	folder=false;is_dir=false;is_writeable=false
06-23-14 15:22:57	210.61.142.43	INFO	admin	Upload File	file=/trunk/bootmgr.exe.mui
06-23-14 15:22:57	210.61.142.43	INFO	admin	Disabling Public links, PUBLIC_DOWNLOAD_FOLDER is not writeable!	folder=false;is_dir=false;is_writeable=false
06-23-14 15:22:59	210.61.142.43	INFO	admin	Disabling Public links, PUBLIC_DOWNLOAD_FOLDER is not writeable!	folder=false;is_dir=false;is_writeable=false
06-23-14 15:23:14	210.61.142.43	INFO	admin	Disabling Public links, PUBLIC_DOWNLOAD_FOLDER is not writeable!	folder=false;is_dir=false;is_writeable=false
06-23-14 15:23:14	210.61.142.43	INFO	admin	Delete	files=/trunk/bootmgr.exe.mui
06-23-14 15:23:14	210.61.142.43	INFO	admin	Disabling Public links, PUBLIC_DOWNLOAD_FOLDER is not writeable!	folder=false;is_dir=false;is_writeable=false
06-23-14 15:23:15	210.61.142.43	INFO	admin	Disabling Public links, PUBLIC_DOWNLOAD_FOLDER is not writeable!	folder=false;is_dir=false;is_writeable=false
06-23-14 15:23:44	210.61.142.43	INFO	admin	Log In	
06-23-14 15:23:44	210.61.142.43	INFO	admin	Disabling Public links, PUBLIC_DOWNLOAD_FOLDER is not writeable!	folder=false;is_dir=false;is_writeable=false
06-23-14 15:23:44	210.61.142.43	INFO	admin	Disabling Public links, PUBLIC_DOWNLOAD_FOLDER is not writeable!	folder=false;is_dir=false;is_writeable=false
06-23-14 15:23:45	210.61.142.43	INFO	admin	Disabling Public links, PUBLIC_DOWNLOAD_FOLDER is not writeable!	folder=false;is_dir=false;is_writeable=false
06-23-14 15:23:45	210.61.142.43	INFO	admin	Disabling Public links, PUBLIC_DOWNLOAD_FOLDER is not writeable!	folder=false;is_dir=false;is_writeable=false
06-23-14 15:23:45	210.61.142.43	INFO	admin	Disabling Public links, PUBLIC_DOWNLOAD_FOLDER is not writeable!	folder=false;is_dir=false;is_writeable=false
06-23-14 15:23:45	210.61.142.43	INFO	admin	Disabling Public links, PUBLIC_DOWNLOAD_FOLDER is not writeable!	folder=false;is_dir=false;is_writeable=false
06-23-14 15:23:46	210.61.142.43	INFO	admin	Disabling Public links, PUBLIC_DOWNLOAD_FOLDER is not writeable!	folder=false;is_dir=false;is_writeable=false
06-23-14 15:23:46	210.61.142.43	INFO	admin	Disabling Public links, PUBLIC_DOWNLOAD_FOLDER is not writeable!	folder=false;is_dir=false;is_writeable=false
06-23-14 15:23:46	210.61.142.43	INFO	admin	Disabling Public links, PUBLIC_DOWNLOAD_FOLDER is not writeable!	folder=false;is_dir=false;is_writeable=false
06-23-14 15:23:47	210.61.142.43	INFO	admin	Disabling Public links, PUBLIC_DOWNLOAD_FOLDER is not writeable!	folder=false;is_dir=false;is_writeable=false
06-23-14 15:23:47	210.61.142.43	INFO	admin	Disabling Public links, PUBLIC_DOWNLOAD_FOLDER is not writeable!	folder=false;is_dir=false;is_writeable=false
06-23-14 15:23:48	210.61.142.43	INFO	admin	Disabling Public links, PUBLIC_DOWNLOAD_FOLDER is not writeable!	folder=false;is_dir=false;is_writeable=false
06-23-14 15:23:48	210.61.142.43	INFO	admin	Disabling Public links, PUBLIC_DOWNLOAD_FOLDER is not writeable!	folder=false;is_dir=false;is_writeable=false
06-23-14 15:23:48	210.61.142.43	INFO	admin	Switch Repository	rep. id=c1a19f4225b1380aa0d984224ca59ecb
06-23-14 15:23:49	210.61.142.43	INFO	admin	Disabling Public links, PUBLIC_DOWNLOAD_FOLDER is not writeable!	folder=false;is_dir=false;is_writeable=false
06-23-14 15:23:49	210.61.142.43	INFO	admin	Disabling Public links, PUBLIC_DOWNLOAD_FOLDER is not writeable!	folder=false;is_dir=false;is_writeable=false
06-23-14 15:23:50	210.61.142.43	INFO	admin	Disabling Public links, PUBLIC_DOWNLOAD_FOLDER is not writeable!	folder=false;is_dir=false;is_writeable=false
06-23-14 15:23:51	210.61.142.43	INFO	admin	Disabling Public links, PUBLIC_DOWNLOAD_FOLDER is not writeable!	folder=false;is_dir=false;is_writeable=false
06-23-14 15:23:51	210.61.142.43	INFO	admin	Disabling Public links, PUBLIC_DOWNLOAD_FOLDER is not writeable!	folder=false;is_dir=false;is_writeable=false
06-23-14 15:25:15	210.61.142.43	INFO	admin	Disabling Public links, PUBLIC_DOWNLOAD_FOLDER is not writeable!	folder=false;is_dir=false;is_writeable=false
06-23-14 15:25:16	210.61.142.43	INFO	admin	Disabling Public links, PUBLIC_DOWNLOAD_FOLDER is not writeable!	folder=false;is_dir=false;is_writeable=false
06-23-14 15:25:19	210.61.142.43	INFO	admin	Disabling Public links, PUBLIC_DOWNLOAD_FOLDER is not writeable!	folder=false;is_dir=false;is_writeable=false
06-23-14 15:25:20	210.61.142.43	INFO	admin	Disabling Public links, PUBLIC_DOWNLOAD_FOLDER is not writeable!	folder=false;is_dir=false;is_writeable=false
06-23-14 15:25:21	210.61.142.43	INFO	admin	Disabling Public links, PUBLIC_DOWNLOAD_FOLDER is not writeable!	folder=false;is_dir=false;is_writeable=false
06-23-14 15:25:45	210.61.142.43	INFO	admin	Disabling Public links, PUBLIC_DOWNLOAD_FOLDER is not writeable!	folder=false;is_dir=false;is_writeable=false
06-23-14 15:25:45	210.61.142.43	INFO	admin	Upload File	file=/trunk/ckfinder/ckfinder.js
06-23-14 15:25:45	210.61.142.43	INFO	admin	Disabling Public links, PUBLIC_DOWNLOAD_FOLDER is not writeable!	folder=false;is_dir=false;is_writeable=false
06-23-14 15:25:46	210.61.142.43	INFO	admin	Disabling Public links, PUBLIC_DOWNLOAD_FOLDER is not writeable!	folder=false;is_dir=false;is_writeable=false
06-23-14 15:26:17	210.61.142.43	INFO	admin	Disabling Public links, PUBLIC_DOWNLOAD_FOLDER is not writeable!	folder=false;is_dir=false;is_writeable=false
06-23-14 15:26:19	210.61.142.43	INFO	admin	Disabling Public links, PUBLIC_DOWNLOAD_FOLDER is not writeable!	folder=false;is_dir=false;is_writeable=false
06-23-14 15:26:21	210.61.142.43	INFO	admin	Disabling Public links, PUBLIC_DOWNLOAD_FOLDER is not writeable!	folder=false;is_dir=false;is_writeable=false
06-23-14 15:26:23	210.61.142.43	INFO	admin	Disabling Public links, PUBLIC_DOWNLOAD_FOLDER is not writeable!	folder=false;is_dir=false;is_writeable=false
06-23-14 15:26:23	210.61.142.43	INFO	admin	Disabling Public links, PUBLIC_DOWNLOAD_FOLDER is not writeable!	folder=false;is_dir=false;is_writeable=false
06-23-14 15:26:25	210.61.142.43	INFO	admin	Disabling Public links, PUBLIC_DOWNLOAD_FOLDER is not writeable!	folder=false;is_dir=false;is_writeable=false
06-23-14 15:26:25	210.61.142.43	INFO	admin	Disabling Public links, PUBLIC_DOWNLOAD_FOLDER is not writeable!	folder=false;is_dir=false;is_writeable=false
06-23-14 15:26:28	210.61.142.43	INFO	admin	Disabling Public links, PUBLIC_DOWNLOAD_FOLDER is not writeable!	folder=false;is_dir=false;is_writeable=false
06-23-14 15:27:31	210.61.142.43	INFO	admin	Disabling Public links, PUBLIC_DOWNLOAD_FOLDER is not writeable!	folder=false;is_dir=false;is_writeable=false
06-23-14 15:27:31	210.61.142.43	INFO	admin	Online Edition	file=/trunk/ckeditor/plugins/image/dialogs/image.js
06-23-14 15:49:26	210.61.142.43	INFO	admin	Disabling Public links, PUBLIC_DOWNLOAD_FOLDER is not writeable!	folder=false;is_dir=false;is_writeable=false
06-23-14 15:49:26	210.61.142.43	INFO	admin	error	message=chmod(): Operation not permitted in /var/www/html/file/plugins/access.fs/class.fsAccessWrapper.php (l.204)
06-23-14 15:49:40	210.61.142.43	INFO	admin	Disabling Public links, PUBLIC_DOWNLOAD_FOLDER is not writeable!	folder=false;is_dir=false;is_writeable=false
06-23-14 15:49:40	210.61.142.43	INFO	admin	error	message=chmod(): Operation not permitted in /var/www/html/file/plugins/access.fs/class.fsAccessWrapper.php (l.204)
06-23-14 15:49:56	210.61.142.43	INFO	admin	Disabling Public links, PUBLIC_DOWNLOAD_FOLDER is not writeable!	folder=false;is_dir=false;is_writeable=false
06-23-14 15:49:56	210.61.142.43	INFO	admin	error	message=chmod(): Operation not permitted in /var/www/html/file/plugins/access.fs/class.fsAccessWrapper.php (l.204)
06-23-14 15:50:03	210.61.142.43	INFO	admin	Disabling Public links, PUBLIC_DOWNLOAD_FOLDER is not writeable!	folder=false;is_dir=false;is_writeable=false
06-23-14 15:50:03	210.61.142.43	INFO	admin	error	message=chmod(): Operation not permitted in /var/www/html/file/plugins/access.fs/class.fsAccessWrapper.php (l.204)
06-23-14 15:50:33	210.61.142.43	INFO	admin	Disabling Public links, PUBLIC_DOWNLOAD_FOLDER is not writeable!	folder=false;is_dir=false;is_writeable=false
06-23-14 15:50:33	210.61.142.43	INFO	admin	error	message=chmod(): Operation not permitted in /var/www/html/file/plugins/access.fs/class.fsAccessWrapper.php (l.204)
06-23-14 15:50:50	210.61.142.43	INFO	admin	Disabling Public links, PUBLIC_DOWNLOAD_FOLDER is not writeable!	folder=false;is_dir=false;is_writeable=false
06-23-14 15:50:51	210.61.142.43	INFO	admin	Disabling Public links, PUBLIC_DOWNLOAD_FOLDER is not writeable!	folder=false;is_dir=false;is_writeable=false
06-23-14 15:50:52	210.61.142.43	INFO	admin	Disabling Public links, PUBLIC_DOWNLOAD_FOLDER is not writeable!	folder=false;is_dir=false;is_writeable=false
06-23-14 15:50:53	210.61.142.43	INFO	admin	Disabling Public links, PUBLIC_DOWNLOAD_FOLDER is not writeable!	folder=false;is_dir=false;is_writeable=false
06-23-14 15:50:55	210.61.142.43	INFO	admin	Disabling Public links, PUBLIC_DOWNLOAD_FOLDER is not writeable!	folder=false;is_dir=false;is_writeable=false
06-23-14 15:50:56	210.61.142.43	INFO	admin	Disabling Public links, PUBLIC_DOWNLOAD_FOLDER is not writeable!	folder=false;is_dir=false;is_writeable=false
06-23-14 15:50:56	210.61.142.43	INFO	admin	Disabling Public links, PUBLIC_DOWNLOAD_FOLDER is not writeable!	folder=false;is_dir=false;is_writeable=false
06-23-14 15:50:56	210.61.142.43	INFO	admin	Disabling Public links, PUBLIC_DOWNLOAD_FOLDER is not writeable!	folder=false;is_dir=false;is_writeable=false
06-23-14 15:50:56	210.61.142.43	INFO	admin	Disabling Public links, PUBLIC_DOWNLOAD_FOLDER is not writeable!	folder=false;is_dir=false;is_writeable=false
06-23-14 15:50:56	210.61.142.43	INFO	admin	Disabling Public links, PUBLIC_DOWNLOAD_FOLDER is not writeable!	folder=false;is_dir=false;is_writeable=false
06-23-14 15:50:58	210.61.142.43	INFO	admin	Disabling Public links, PUBLIC_DOWNLOAD_FOLDER is not writeable!	folder=false;is_dir=false;is_writeable=false
06-23-14 15:51:11	210.61.142.43	INFO	admin	Disabling Public links, PUBLIC_DOWNLOAD_FOLDER is not writeable!	folder=false;is_dir=false;is_writeable=false
06-23-14 15:51:11	210.61.142.43	INFO	admin	error	message=chmod(): Operation not permitted in /var/www/html/file/plugins/access.fs/class.fsAccessWrapper.php (l.204)
06-23-14 15:51:25	210.61.142.43	INFO	admin	Disabling Public links, PUBLIC_DOWNLOAD_FOLDER is not writeable!	folder=false;is_dir=false;is_writeable=false
06-23-14 15:51:25	210.61.142.43	INFO	admin	error	message=chmod(): Operation not permitted in /var/www/html/file/plugins/access.fs/class.fsAccessWrapper.php (l.204)
06-23-14 15:51:30	210.61.142.43	INFO	admin	Disabling Public links, PUBLIC_DOWNLOAD_FOLDER is not writeable!	folder=false;is_dir=false;is_writeable=false
06-23-14 15:52:03	210.61.142.43	INFO	admin	Disabling Public links, PUBLIC_DOWNLOAD_FOLDER is not writeable!	folder=false;is_dir=false;is_writeable=false
06-23-14 15:52:03	210.61.142.43	INFO	admin	Disabling Public links, PUBLIC_DOWNLOAD_FOLDER is not writeable!	folder=false;is_dir=false;is_writeable=false
06-23-14 15:52:05	210.61.142.43	INFO	admin	Disabling Public links, PUBLIC_DOWNLOAD_FOLDER is not writeable!	folder=false;is_dir=false;is_writeable=false
06-23-14 15:52:05	210.61.142.43	INFO	admin	Disabling Public links, PUBLIC_DOWNLOAD_FOLDER is not writeable!	folder=false;is_dir=false;is_writeable=false
06-23-14 15:52:05	210.61.142.43	INFO	admin	Disabling Public links, PUBLIC_DOWNLOAD_FOLDER is not writeable!	folder=false;is_dir=false;is_writeable=false
06-23-14 15:52:07	210.61.142.43	INFO	admin	Disabling Public links, PUBLIC_DOWNLOAD_FOLDER is not writeable!	folder=false;is_dir=false;is_writeable=false
06-23-14 15:52:07	210.61.142.43	INFO	admin	Disabling Public links, PUBLIC_DOWNLOAD_FOLDER is not writeable!	folder=false;is_dir=false;is_writeable=false
06-23-14 15:52:07	210.61.142.43	INFO	admin	Disabling Public links, PUBLIC_DOWNLOAD_FOLDER is not writeable!	folder=false;is_dir=false;is_writeable=false
06-23-14 15:52:07	210.61.142.43	INFO	admin	Disabling Public links, PUBLIC_DOWNLOAD_FOLDER is not writeable!	folder=false;is_dir=false;is_writeable=false
06-23-14 15:52:15	210.61.142.43	INFO	admin	Disabling Public links, PUBLIC_DOWNLOAD_FOLDER is not writeable!	folder=false;is_dir=false;is_writeable=false
06-23-14 15:52:16	210.61.142.43	INFO	admin	Disabling Public links, PUBLIC_DOWNLOAD_FOLDER is not writeable!	folder=false;is_dir=false;is_writeable=false
06-23-14 15:52:17	210.61.142.43	INFO	admin	Disabling Public links, PUBLIC_DOWNLOAD_FOLDER is not writeable!	folder=false;is_dir=false;is_writeable=false
06-23-14 15:52:18	210.61.142.43	INFO	admin	Disabling Public links, PUBLIC_DOWNLOAD_FOLDER is not writeable!	folder=false;is_dir=false;is_writeable=false
06-23-14 15:52:22	210.61.142.43	INFO	admin	Disabling Public links, PUBLIC_DOWNLOAD_FOLDER is not writeable!	folder=false;is_dir=false;is_writeable=false
06-23-14 15:52:22	210.61.142.43	INFO	admin	Disabling Public links, PUBLIC_DOWNLOAD_FOLDER is not writeable!	folder=false;is_dir=false;is_writeable=false
06-23-14 15:52:24	210.61.142.43	INFO	admin	Disabling Public links, PUBLIC_DOWNLOAD_FOLDER is not writeable!	folder=false;is_dir=false;is_writeable=false
06-23-14 15:52:25	210.61.142.43	INFO	admin	Disabling Public links, PUBLIC_DOWNLOAD_FOLDER is not writeable!	folder=false;is_dir=false;is_writeable=false
06-23-14 15:52:27	210.61.142.43	INFO	admin	Disabling Public links, PUBLIC_DOWNLOAD_FOLDER is not writeable!	folder=false;is_dir=false;is_writeable=false
06-23-14 15:52:42	210.61.142.43	INFO	admin	Disabling Public links, PUBLIC_DOWNLOAD_FOLDER is not writeable!	folder=false;is_dir=false;is_writeable=false
06-23-14 15:52:42	210.61.142.43	INFO	admin	Online Edition	file=/trunk/ckeditor/plugins/image/dialogs/image.js
06-23-14 15:53:38	210.61.142.43	INFO	admin	Disabling Public links, PUBLIC_DOWNLOAD_FOLDER is not writeable!	folder=false;is_dir=false;is_writeable=false
06-23-14 15:53:45	210.61.142.43	INFO	admin	Disabling Public links, PUBLIC_DOWNLOAD_FOLDER is not writeable!	folder=false;is_dir=false;is_writeable=false
06-23-14 15:54:40	210.61.142.43	INFO	admin	Disabling Public links, PUBLIC_DOWNLOAD_FOLDER is not writeable!	folder=false;is_dir=false;is_writeable=false
06-23-14 15:54:40	210.61.142.43	INFO	admin	Online Edition	file=/trunk/ckeditor/plugins/image/dialogs/image.js
06-23-14 15:56:19	210.61.142.43	INFO	admin	Disabling Public links, PUBLIC_DOWNLOAD_FOLDER is not writeable!	folder=false;is_dir=false;is_writeable=false
06-23-14 15:56:19	210.61.142.43	INFO	admin	Online Edition	file=/trunk/ckeditor/plugins/image/dialogs/image.js
06-23-14 15:56:51	210.61.142.43	INFO	admin	Disabling Public links, PUBLIC_DOWNLOAD_FOLDER is not writeable!	folder=false;is_dir=false;is_writeable=false
06-23-14 15:56:51	210.61.142.43	INFO	admin	Online Edition	file=/trunk/ckeditor/plugins/image/dialogs/image.js
06-23-14 15:57:17	210.61.142.43	INFO	admin	Disabling Public links, PUBLIC_DOWNLOAD_FOLDER is not writeable!	folder=false;is_dir=false;is_writeable=false
06-23-14 15:57:17	210.61.142.43	INFO	admin	Online Edition	file=/trunk/ckeditor/plugins/image/dialogs/image.js
