07-30-14 12:06:57	210.61.142.43	INFO	admin	Log In	
07-30-14 12:06:58	210.61.142.43	INFO	admin	Disabling Public links, PUBLIC_DOWNLOAD_FOLDER is not writeable!	folder=false;is_dir=false;is_writeable=false
07-30-14 12:06:58	210.61.142.43	INFO	admin	Disabling Public links, PUBLIC_DOWNLOAD_FOLDER is not writeable!	folder=false;is_dir=false;is_writeable=false
07-30-14 12:06:58	210.61.142.43	INFO	admin	Disabling Public links, PUBLIC_DOWNLOAD_FOLDER is not writeable!	folder=false;is_dir=false;is_writeable=false
07-30-14 12:06:58	210.61.142.43	INFO	admin	Disabling Public links, PUBLIC_DOWNLOAD_FOLDER is not writeable!	folder=false;is_dir=false;is_writeable=false
07-30-14 12:06:58	210.61.142.43	INFO	admin	Disabling Public links, PUBLIC_DOWNLOAD_FOLDER is not writeable!	folder=false;is_dir=false;is_writeable=false
07-30-14 12:06:58	210.61.142.43	INFO	admin	Disabling Public links, PUBLIC_DOWNLOAD_FOLDER is not writeable!	folder=false;is_dir=false;is_writeable=false
07-30-14 12:06:58	210.61.142.43	INFO	admin	Disabling Public links, PUBLIC_DOWNLOAD_FOLDER is not writeable!	folder=false;is_dir=false;is_writeable=false
07-30-14 12:07:00	210.61.142.43	INFO	admin	Disabling Public links, PUBLIC_DOWNLOAD_FOLDER is not writeable!	folder=false;is_dir=false;is_writeable=false
07-30-14 12:07:00	210.61.142.43	INFO	admin	Disabling Public links, PUBLIC_DOWNLOAD_FOLDER is not writeable!	folder=false;is_dir=false;is_writeable=false
07-30-14 12:07:01	210.61.142.43	INFO	admin	Switch Repository	rep. id=c1a19f4225b1380aa0d984224ca59ecb
07-30-14 12:07:01	210.61.142.43	INFO	admin	Disabling Public links, PUBLIC_DOWNLOAD_FOLDER is not writeable!	folder=false;is_dir=false;is_writeable=false
07-30-14 12:07:01	210.61.142.43	INFO	admin	Disabling Public links, PUBLIC_DOWNLOAD_FOLDER is not writeable!	folder=false;is_dir=false;is_writeable=false
07-30-14 12:07:02	210.61.142.43	INFO	admin	Disabling Public links, PUBLIC_DOWNLOAD_FOLDER is not writeable!	folder=false;is_dir=false;is_writeable=false
07-30-14 12:07:02	210.61.142.43	INFO	admin	Disabling Public links, PUBLIC_DOWNLOAD_FOLDER is not writeable!	folder=false;is_dir=false;is_writeable=false
07-30-14 12:07:02	210.61.142.43	INFO	admin	Disabling Public links, PUBLIC_DOWNLOAD_FOLDER is not writeable!	folder=false;is_dir=false;is_writeable=false
07-30-14 12:07:02	210.61.142.43	INFO	admin	Disabling Public links, PUBLIC_DOWNLOAD_FOLDER is not writeable!	folder=false;is_dir=false;is_writeable=false
07-30-14 12:07:03	210.61.142.43	INFO	admin	Disabling Public links, PUBLIC_DOWNLOAD_FOLDER is not writeable!	folder=false;is_dir=false;is_writeable=false
07-30-14 12:07:05	210.61.142.43	INFO	admin	Disabling Public links, PUBLIC_DOWNLOAD_FOLDER is not writeable!	folder=false;is_dir=false;is_writeable=false
07-30-14 12:07:13	210.61.142.43	INFO	admin	Disabling Public links, PUBLIC_DOWNLOAD_FOLDER is not writeable!	folder=false;is_dir=false;is_writeable=false
07-30-14 12:07:20	210.61.142.43	INFO	admin	Disabling Public links, PUBLIC_DOWNLOAD_FOLDER is not writeable!	folder=false;is_dir=false;is_writeable=false
07-30-14 12:07:21	210.61.142.43	INFO	admin	Disabling Public links, PUBLIC_DOWNLOAD_FOLDER is not writeable!	folder=false;is_dir=false;is_writeable=false
07-30-14 12:07:24	210.61.142.43	INFO	admin	Disabling Public links, PUBLIC_DOWNLOAD_FOLDER is not writeable!	folder=false;is_dir=false;is_writeable=false
07-30-14 12:07:26	210.61.142.43	INFO	admin	Disabling Public links, PUBLIC_DOWNLOAD_FOLDER is not writeable!	folder=false;is_dir=false;is_writeable=false
07-30-14 12:07:27	210.61.142.43	INFO	admin	Disabling Public links, PUBLIC_DOWNLOAD_FOLDER is not writeable!	folder=false;is_dir=false;is_writeable=false
07-30-14 12:07:28	210.61.142.43	INFO	admin	Disabling Public links, PUBLIC_DOWNLOAD_FOLDER is not writeable!	folder=false;is_dir=false;is_writeable=false
07-30-14 12:07:31	210.61.142.43	INFO	admin	Disabling Public links, PUBLIC_DOWNLOAD_FOLDER is not writeable!	folder=false;is_dir=false;is_writeable=false
07-30-14 12:07:34	210.61.142.43	INFO	admin	Disabling Public links, PUBLIC_DOWNLOAD_FOLDER is not writeable!	folder=false;is_dir=false;is_writeable=false
